page_type;title;description
1;Terms and Conditions;<p></p> <h1>mysiteName</h1> <h1>Terms and Conditions ("Terms")</h1> <p>Last updated: </p> <p>Please read these Terms and Conditions ("Terms", "Terms and Conditions") carefully before using the http://www.mysite.com website (the "Service") operated by mysiteName ("us", "we", or "our").</p> <p>Your access to and use of the Service is conditioned on your acceptance of and compliance with these Terms. These Terms apply to all visitors, users and others who access or use the Service.</p> <p>By accessing or using the Service you agree to be bound by these Terms. If you disagree with any part of the terms then you may not access the Service.</p> <h2>Accounts</h2> <p>When you create an account with us, you must provide us information that is accurate, complete, and current at all times. Failure to do so constitutes a breach of the Terms, which may result in immediate termination of your account on our Service.</p> <p>You are responsible for safeguarding the password that you use to access the Service and for any activities or actions under your password, whether your password is with our Service or a third-party service.</p> <p>You agree not to disclose your password to any third party. You must notify us immediately upon becoming aware of any breach of security or unauthorized use of your account.</p> <h2>Links To Other Web Sites</h2> <p>Our Service may contain links to third-party web sites or services that are not owned or controlled by mysiteName.</p> <p>mysiteName has no control over, and assumes no responsibility for, the content, privacy policies, or practices of any third party web sites or services. You further acknowledge and agree that mysiteName shall not be responsible or liable, directly or indirectly, for any damage or loss caused or alleged to be caused by or in connection with use of or reliance on any such content, goods or services available on or through any such web sites or services.</p> <p>We strongly advise you to read the terms and conditions and privacy policies of any third-party web sites or services that you visit.</p> <h2>Termination</h2> <p>We may terminate or suspend access to our Service immediately, without prior notice or liability, for any reason whatsoever, including without limitation if you breach the Terms.</p> <p>All provisions of the Terms which by their nature should survive termination shall survive termination, including, without limitation, ownership provisions, warranty disclaimers, indemnity and limitations of liability.</p> <p>We may terminate or suspend your account immediately, without prior notice or liability, for any reason whatsoever, including without limitation if you breach the Terms.</p> <p>Upon termination, your right to use the Service will immediately cease. If you wish to terminate your account, you may simply discontinue using the Service.</p> <p>All provisions of the Terms which by their nature should survive termination shall survive termination, including, without limitation, ownership provisions, warranty disclaimers, indemnity and limitations of liability.</p> <h2>Governing Law</h2> <p>These Terms shall be governed and construed in accordance with the laws of California, United States, without regard to its conflict of law provisions.</p> <p>Our failure to enforce any right or provision of these Terms will not be considered a waiver of those rights. If any provision of these Terms is held to be invalid or unenforceable by a court, the remaining provisions of these Terms will remain in effect. These Terms constitute the entire agreement between us regarding our Service, and supersede and replace any prior agreements we might have between us regarding the Service.</p> <h2>Changes</h2> <p>We reserve the right, at our sole discretion, to modify or replace these Terms at any time. If a revision is material we will try to provide at least 30 days notice prior to any new terms taking effect. What constitutes a material change will be determined at our sole discretion.</p> <p>By continuing to access or use our Service after those revisions become effective, you agree to be bound by the revised terms. If you do not agree to the new terms, please stop using the Service.</p> <h2>Contact Us</h2> <p>If you have any questions about these Terms, please contact us.</p> <p>Terms and Conditions of http://www.mysite.com</p> <p> </p> <p> </p> <p> </p> <p> </p>
2;Privacy Policy;<p></p> <h1>Privacy Policy</h1> <p>Last updated: </p> <p>mysiteName ("us", "we", or "our") operates the http://www.mysite.com website (the "Service").</p> <p>This page informs you of our policies regarding the collection, use and disclosure of Personal Information when you use our Service.</p> <p>We will not use or share your information with anyone except as described in this Privacy Policy. <a href="http://privacy-policy-template.com/">Privacy Policy Template</a> for mysiteName.</p> <p>We use your Personal Information for providing and improving the Service. By using the Service, you agree to the collection and use of information in accordance with this policy. Unless otherwise defined in this Privacy Policy, terms used in this Privacy Policy have the same meanings as in our Terms and Conditions, accessible at http://www.mysite.com</p> <h2>Information Collection And Use</h2> <p>While using our Service, we may ask you to provide us with certain personally identifiable information that can be used to contact or identify you. Personally identifiable information may include, but is not limited to, your name, phone number, postal address, other information ("Personal Information").</p> <h2>Log Data</h2> <p>We collect information that your browser sends whenever you visit our Service ("Log Data"). This Log Data may include information such as your computer's Internet Protocol ("IP") address, browser type, browser version, the pages of our Service that you visit, the time and date of your visit, the time spent on those pages and other statistics.</p> <h2>Cookies</h2> <p>Cookies are files with small amount of data, which may include an anonymous unique identifier. Cookies are sent to your browser from a web site and stored on your computer's hard drive.</p> <p>We use "cookies" to collect information. You can instruct your browser to refuse all cookies or to indicate when a cookie is being sent. However, if you do not accept cookies, you may not be able to use some portions of our Service.</p> <h2>Service Providers</h2> <p>We may employ third party companies and individuals to facilitate our Service, to provide the Service on our behalf, to perform Service-related services or to assist us in analyzing how our Service is used.</p> <p>These third parties have access to your Personal Information only to perform these tasks on our behalf and are obligated not to disclose or use it for any other purpose.</p> <h2>Security</h2> <p>The security of your Personal Information is important to us, but remember that no method of transmission over the Internet, or method of electronic storage is 100% secure. While we strive to use commercially acceptable means to protect your Personal Information, we cannot guarantee its absolute security.</p> <h2>Links To Other Sites</h2> <p>Our Service may contain links to other sites that are not operated by us. If you click on a third party link, you will be directed to that third party's site. We strongly advise you to review the Privacy Policy of every site you visit.</p> <p>We have no control over, and assume no responsibility for the content, privacy policies or practices of any third party sites or services.</p> <h2>Children's Privacy</h2> <p>Our Service does not address anyone under the age of 13 ("Children").</p> <p>We do not knowingly collect personally identifiable information from children under 13. If you are a parent or guardian and you are aware that your Children has provided us with Personal Information, please contact us. If we discover that a Children under 13 has provided us with Personal Information, we will delete such information from our servers immediately.</p> <h2>Changes To This Privacy Policy</h2> <p>We may update our Privacy Policy from time to time. We will notify you of any changes by posting the new Privacy Policy on this page.</p> <p>You are advised to review this Privacy Policy periodically for any changes. Changes to this Privacy Policy are effective when they are posted on this page.</p> <h2>Contact Us</h2> <p>If you have any questions about this Privacy Policy, please contact us.</p> <p> </p> <p> </p>'
3;Disclaimer Sale; Disclaimer sale;
4;Disclaimer Buyback; Disclaimer buyback;
5;Disclaimer Repair; Disclaimer repair;