title|content
"logo-1"|<?xml version="1.0" encoding="UTF-8" standalone="no"?><svg xmlns:dc="http://purl.org/dc/elements/1.1/" xmlns:cc="http://creativecommons.org/ns#" xmlns:rdf="http://www.w3.org/1999/02/22-rdf-syntax-ns#" xmlns:svg="http://www.w3.org/2000/svg" xmlns="http://www.w3.org/2000/svg" xmlns:sodipodi="http://sodipodi.sourceforge.net/DTD/sodipodi-0.dtd" xmlns:inkscape="http://www.inkscape.org/namespaces/inkscape" width="25.664576mm" height="34.924992mm" color-count="3" viewBox="0 0 25.664576 34.924992" version="1.1" id="svg8" inkscape:version="0.92.2 (unknown)" sodipodi:docname="logo-1.svg"><defs id="defs2"><clipPath id="clipPath53" clipPathUnits="userSpaceOnUse"><path inkscape:connector-curvature="0" id="path51" d="M 0,3492 H 2384 V 0 H 0 Z" /></clipPath></defs><sodipodi:namedview id="base" pagecolor="#ffffff" bordercolor="#666666" borderopacity="1.0" inkscape:pageopacity="0.0" inkscape:pageshadow="2" inkscape:zoom="5.6" inkscape:cx="83.420125" inkscape:cy="58.932372" inkscape:document-units="mm" inkscape:current-layer="layer1" showgrid="false" fit-margin-top="0" fit-margin-left="0" fit-margin-right="0" fit-margin-bottom="0" inkscape:window-width="1855" inkscape:window-height="1056" inkscape:window-x="65" inkscape:window-y="24" inkscape:window-maximized="1" /><metadata id="metadata5"><rdf:RDF><cc:Work rdf:about=""><dc:format>image/svg+xml</dc:format><dc:type rdf:resource="http://purl.org/dc/dcmitype/StillImage" /><dc:title></dc:title></cc:Work></rdf:RDF></metadata><g inkscape:label="Layer 1" inkscape:groupmode="layer" id="layer1" transform="translate(4.894582e-8,-262.07501)"><g transform="matrix(0.01171663,0,0,-0.01186051,-1.1985786,300.07719)" inkscape:label="logo1-Color1" id="g37"><g transform="translate(223.9248,1981.687)" id="g39"><path id="path41" class="second" style="fill:#363293;fill-opacity:1;fill-rule:nonzero;stroke:none;stroke-width:0.04455439" transform="matrix(22.581863,0,0,-22.307922,-121.62759,1222.4062)"  d="M 24.398438,43.384766 5.3867188,54.796875 13.046875,57.46875 1.3691406,91.429688 C -3.1237571,104.63908 3.8067132,119.02288 16.851562,123.57422 l 20.191407,7.04101 c 13.049233,4.54574 27.257475,-2.47065 31.757812,-15.67578 l 16.873047,-49.185544 -8.796875,5.279297 -2.765625,-7.152344 -16.21289,47.257811 c -2.433458,7.10429 -10.071757,10.87561 -17.09961,8.44141 l -20.1875,-7.03906 C 13.589941,110.0796 9.8637067,102.34361 12.269531,95.228516 l 11.677735,-33.958985 8.49414,2.960938 z m 8.564453,57.462894 c -1.784167,0.12235 -3.407844,1.30105 -4.023438,3.12109 -0.825043,2.42672 0.447535,5.07108 2.84375,5.90625 2.396171,0.83517 5.010138,-0.45625 5.833985,-2.88086 0.827256,-2.42672 -0.45029,-5.07165 -2.847657,-5.90234 -0.599054,-0.20963 -1.211918,-0.28493 -1.80664,-0.24414 z" /></g><g transform="translate(1681.8203,2157.4282)" id="g43" /><g id="g47"><g clip-path="url(#clipPath53)" id="g49"><g transform="translate(1838.3037,1619.4707)" id="g55" /><g transform="translate(709.9619,2823.5151)" id="g59" /><g transform="translate(887.46,948.9297)" id="g63" /><g transform="translate(1768.1865,2603.5332)" id="g67"><path id="path69" class="first" style="fill:#0096d6;fill-opacity:1;fill-rule:nonzero;stroke:none" d="m 0,0 -20.871,-60.537 -489.022,168.423 20.919,60.537 z m -1058.2246,219.9819 -214.276,-615.418 185.85,110.195 67.735,-173.428 206.887,593.85 c 54.953,158.483 227.445,242.608 386.12,188.306 l 455.925,-157.063 c 158.456,-54.879 242.609,-227.442 188.353,-386.118 l -129.26,-368.476 246.146,-84.754 129.308,368.429 c 101.29,294.674 -55.167,615.56 -349.698,717.091 l -455.994,157.063 c -294.654,101.459 -615.565,-55.123 -717.096,-349.677 m 971.8584,-666.0869 181.589,-464.977 429.328,254.549" /></g></g></g></g></g></svg>
"logo-2"|<?xml version="1.0" encoding="UTF-8" standalone="no"?><svg xmlns:dc="http://purl.org/dc/elements/1.1/" xmlns:cc="http://creativecommons.org/ns#" xmlns:rdf="http://www.w3.org/1999/02/22-rdf-syntax-ns#" xmlns:svg="http://www.w3.org/2000/svg" xmlns="http://www.w3.org/2000/svg" xmlns:sodipodi="http://sodipodi.sourceforge.net/DTD/sodipodi-0.dtd" xmlns:inkscape="http://www.inkscape.org/namespaces/inkscape" width="51.064602mm" height="41.274986mm" color-count="2" viewBox="0 0 51.064602 41.274986" version="1.1" id="svg8" inkscape:version="0.92.2 (unknown)" sodipodi:docname="logo-2.svg"><defs id="defs2"><clipPath id="clipPath49" clipPathUnits="userSpaceOnUse"><path inkscape:connector-curvature="0" id="path47" d="M 0,3492 H 3984 V 0 H 0 Z" /></clipPath></defs><sodipodi:namedview id="base" pagecolor="#ffffff" bordercolor="#666666" borderopacity="1.0" inkscape:pageopacity="0.0" inkscape:pageshadow="2" inkscape:zoom="3.959798" inkscape:cx="162.57679" inkscape:cy="44.640321" inkscape:document-units="mm" inkscape:current-layer="layer1" showgrid="false" fit-margin-top="0" fit-margin-left="0" fit-margin-right="0" fit-margin-bottom="0" inkscape:window-width="1855" inkscape:window-height="1056" inkscape:window-x="65" inkscape:window-y="24" inkscape:window-maximized="1" /><metadata id="metadata5"><rdf:RDF><cc:Work rdf:about=""><dc:format>image/svg+xml</dc:format><dc:type rdf:resource="http://purl.org/dc/dcmitype/StillImage" /><dc:title /></cc:Work></rdf:RDF></metadata><g inkscape:label="Layer 1" inkscape:groupmode="layer" id="layer1" transform="translate(2.8879999e-8,-255.72481)"><g transform="matrix(0.0130472,0,0,-0.01360271,-0.62674968,299.74465)" inkscape:label="logo2-Color1" id="g37"><g transform="translate(1925.7705,893.1055)" id="g39"><path id="path41" class="first" style="fill:#0096d6;fill-opacity:1;fill-rule:nonzero;stroke:none;stroke-width:0.05035109" transform="matrix(20.278936,0,0,-19.450781,-1877.7334,2343.0026)"  d="M 50.558594,0 C 43.694428,0.00313612 38.109375,5.8291359 38.109375,12.982422 l -0.002,90.910158 C 28.235718,111.33622 19.142915,119.48453 12.328125,126.93164 5.061274,135.04921 0.19473408,141.8292 0,147.61523 c 0,1.0193 0.18906392,2.0476 0.64648438,2.98438 C 2.8472903,154.7817 7.622036,155.95342 13.648438,156 c 14.31516,-0.0496 38.934185,-7.53521 67.419921,-20.46094 0.727631,0.35492 1.538302,0.55274 2.394532,0.55274 2.554393,0 4.712824,-1.76394 5.417968,-4.1875 6.098171,-2.90828 12.338291,-6.04496 18.666021,-9.39649 24.2954,-12.90329 45.44882,-26.687286 60.61328,-38.966794 7.58629,-6.137078 13.67449,-11.895207 17.94336,-17.046875 4.22921,-5.188586 6.81945,-9.670914 6.89648,-14.027344 0,-1.235016 -0.2474,-2.468351 -0.79102,-3.572266 -2.19878,-4.196746 -6.98161,-5.368562 -13.00195,-5.414062 -1.6389,0.0029 -3.42093,0.11672 -5.3125,0.316406 -8.89639,0.362096 -12.27734,3.605469 -12.27734,3.605469 C 171.29679,47.20775 178,58.658203 178,58.658203 c -1.33806,-4.582917 0.41501,-8.159892 2.4375,-10.564453 4.77694,0.174324 7.34492,1.526503 7.85742,2.875 0.1977,0.412375 0.3125,0.873135 0.3125,1.498047 0.07,2.179296 -1.82004,6.256942 -5.82617,11.033203 -11.94742,14.492579 -41.11979,35.780227 -77.22656,54.93164 -5.825259,3.09963 -11.586485,6.00919 -17.234378,8.72266 -0.989979,-1.7185 -2.794975,-2.86914 -4.857421,-2.86914 -3.126841,0 -5.66211,2.64242 -5.66211,5.90234 0,0.60506 0.08775,1.18861 0.25,1.73828 -4.68043,2.10136 -9.251287,4.05167 -13.677734,5.83984 H 50.558594 c -3.764792,-0.003 -6.837683,-3.1995 -6.84375,-7.1289 l 0.002,-117.654298 c 0.0061,-3.9250867 3.077005,-7.1294701 6.841797,-7.1347658 l 60.763676,0.00195 c 3.76573,0.00637 6.83563,3.2077259 6.84179,7.1328126 v 1.255859 0.777344 h 0.74414 3.54688 0.74414 v -0.777344 -5.0078122 -0.125 l -0.0352,-0.1113282 C 121.50082,3.6162591 116.73813,0.00390625 111.32227,0.00390625 Z m -0.123047,18.134766 v 0.77539 100.773434 0.77344 h 0.742187 40.673828 0.744141 v -0.77344 -3.21875 -0.7832 H 91.851562 55.009766 V 22.902344 h 41.40039 0.742188 v -0.773438 -3.21875 -0.77539 H 96.410156 51.177734 Z M 38.107422,109.56445 v 21.07227 c 0.0028,6.62308 4.793374,12.10267 10.949219,12.8789 -14.949091,5.14779 -27.344671,7.9364 -35.408203,7.90626 -5.5933911,0.0444 -8.5370537,-1.45583 -9.0898442,-2.90235 -0.091277,-0.18822 -0.1679688,-0.46128 -0.1679688,-0.9043 -0.194734,-2.73757 4.0116375,-9.91567 11.117187,-17.52148 5.985198,-6.55251 13.924784,-13.78208 22.59961,-20.5293 z m 85.093748,23.24414 -0.78515,0.0488 -3.11914,0.18164 -0.22071,0.0273 h -1.38281 -0.74414 v 0.77539 0.80664 c -1.28597,1.95827 -3.37334,3.12109 -5.62695,3.12109 H 81.646484 81.494141 l -0.142579,0.0644 c -3.147107,1.40951 -6.397322,2.8119 -9.927734,4.28907 l 0.277344,1.49414 39.621098,0.004 c 4.29726,0 8.23695,-2.28664 10.53515,-6.11328 l 1.23242,-2.05664 0.11133,-0.18555 v -0.2246 -1.41016 z" /></g><g id="g43"><g clip-path="url(#clipPath49)" id="g45"><g transform="translate(1855.3906,703.8477)" id="g51" /><g transform="translate(1255.6548,442.7285)" id="g55" /><g transform="translate(2305.5215,442.5625)" id="g59" /><g transform="translate(2462.7793,632.7051)" id="g63" /><g transform="translate(3265.1846,1419.7051)" id="g67"><path id="path69" class="second" style="fill:#464847;fill-opacity:1;fill-rule:nonzero;stroke:none;stroke-width:0.1907956" transform="matrix(5.3378121,0,0,-5.1463582,-3217.1475,1816.4033)"  d="m 406.79492,80.099609 c -16.61448,0 -30.11719,14.007949 -30.11719,31.220701 v 22.25586 c -13.93248,5.75475 -26.89308,13.50084 -38.55273,23.07227 l -18.55664,-11.09766 c -4.57378,-2.74544 -9.7678,-4.18945 -15.03906,-4.18945 -2.65465,0 -5.263,0.35534 -7.76758,1.05078 -7.69079,2.13394 -14.36107,7.4349 -18.29883,14.55664 l -27.58008,49.57422 c -2.66663,4.78377 -4.06992,10.17098 -4.04687,15.57422 -0.023,11.07812 5.73784,21.43769 15.04297,27.05273 l 18.54882,11.11328 c -1.11731,7.96894 -1.67968,15.53525 -1.67968,23.06446 0,7.44954 0.57005,15.22223 1.67968,23.10742 l -18.54101,11.13867 c -9.31281,5.56296 -15.07383,15.92174 -15.05078,27.01172 -0.023,5.43918 1.38037,10.85349 4.05468,15.62891 l 27.57227,49.54882 c 5.37112,9.63983 15.35116,15.6211 26.06641,15.6211 5.2366,0 10.44194,-1.44135 15.02734,-4.19922 L 338.125,410.09375 c 11.69037,9.51566 24.63561,17.26196 38.55273,23.03711 v 22.26758 c 0,0.69952 0.0853,1.39848 0.16993,2.08984 l 0.10742,0.82617 0.3789,4.13282 3.62891,-1.75 4.43945,-2.10547 c 2.08063,-0.991 4.16562,-1.99058 6.27735,-3.00586 l 1.6289,-0.79102 v -1.86719 -29.78125 -2.08593 l -1.89648,-0.6875 -3.64453,-1.32227 c -16.04422,-5.94245 -30.6625,-14.67557 -43.43946,-25.9414 l -2.94726,-2.61329 -1.51367,-1.35547 -1.74219,1.04297 -26.85742,16.09375 c -2.09618,1.24302 -4.36072,1.87891 -6.73828,1.87891 -4.80459,0 -9.28135,-2.68175 -11.68946,-6.99023 l -27.57031,-49.5918 c -1.20592,-2.1421 -1.82226,-4.47187 -1.82226,-6.9375 0.0191,-5.07952 2.54038,-9.59931 6.74023,-12.1211 l 26.88672,-16.125 1.72266,-1.02343 -0.36719,-2.03516 -0.68555,-3.94336 c -1.59522,-9.11168 -2.36523,-17.62827 -2.36523,-26.04101 0,-8.37641 0.77001,-16.89025 2.36523,-25.99805 l 0.68555,-3.94727 0.36719,-2.04296 -1.73829,-1.02344 -26.87109,-16.07617 c -4.19985,-2.52975 -6.72113,-7.07136 -6.74023,-12.13086 0,-2.45766 0.61634,-4.78288 1.82226,-6.95703 l 27.57031,-49.59571 c 1.8146,-3.23296 4.7194,-5.54689 8.16407,-6.49805 1.20592,-0.3278 2.42695,-0.49218 3.50586,-0.49218 2.38131,0.0198 4.71559,0.66795 6.75781,1.8789 l 26.88867,16.08204 1.71094,1.03124 1.51367,-1.33203 2.9668,-2.60156 c 12.78838,-11.31402 27.39875,-20.06547 43.41992,-25.99219 l 3.65625,-1.34375 1.88476,-0.6875 v -2.07226 -32.22852 c 0.0154,-7.68524 6.06531,-13.958325 13.48633,-13.982419 h 55.16797 c 7.42102,0.02409 13.45542,6.297179 13.48633,13.982419 v 32.20313 2.05859 l 1.86523,0.69531 3.64844,1.375 c 15.99813,5.91079 30.62879,14.67007 43.49023,26.00391 l 2.92774,2.58984 1.52539,1.34375 1.73437,-1.04296 26.79883,-16.0586 c 2.09974,-1.24301 4.44218,-1.90234 6.76953,-1.90234 1.10158,0 2.27621,0.16438 3.47071,0.49218 3.44111,0.93912 6.417,3.32428 8.18945,6.52149 l 27.59375,49.55273 c 1.18307,2.15415 1.82031,4.58432 1.82031,7.00196 0,1.21911 -0.15452,2.44463 -0.46289,3.60351 -0.93652,3.61285 -3.1759,6.63559 -6.30078,8.50196 l -26.83984,16.07617 -1.71875,1.02344 0.35937,2.03124 0.67774,3.95899 c 1.59522,9.05611 2.37304,17.5616 2.37304,25.99805 0,8.4483 -0.77782,16.95678 -2.37304,26.05273 l -0.67774,3.93945 -0.35937,2.02735 1.71875,1.02343 27.28711,16.41602 1.09961,0.87891 c 4.69668,-3.48927 9.23923,-6.94033 13.70117,-10.37305 l -1.22656,-1.21094 c -1.92645,-1.92213 -3.79786,-3.40988 -5.68946,-4.5332 l -18.53711,-11.11328 c 1.13268,-7.99303 1.6875,-15.57005 1.6875,-23.10742 0,-7.51347 -0.55471,-15.095 -1.70312,-23.07618 l 18.55273,-11.08593 c 6.97009,-4.17635 11.94447,-10.91881 14.01367,-18.93555 0.68568,-2.58183 1.02344,-5.30596 1.02344,-8.0957 0,-5.49496 -1.39389,-10.8957 -4.03711,-15.59961 L 590.2793,156.98047 c -3.95706,-7.14564 -10.63444,-12.44512 -18.24805,-14.53125 -2.50458,-0.72343 -5.13296,-1.08789 -7.82227,-1.08789 -5.22498,0 -10.42729,1.44401 -15.05859,4.18945 l -18.49805,11.09766 c -11.71716,-9.57143 -24.66843,-17.31752 -38.58593,-23.07227 v -22.25586 c 0,-17.212752 -13.48896,-31.220701 -30.08789,-31.220701 z m 27.5918,99.148441 c -55.34196,0 -100.36534,46.70679 -100.37695,104.09961 0.0116,57.40894 45.03499,104.12258 100.37695,104.14648 55.35002,-0.0239 100.37708,-46.73754 100.38476,-104.14648 -0.008,-57.39282 -45.03474,-104.09961 -100.38476,-104.09961 z m 0,17.22851 c 46.10972,0.10804 83.67685,39.0738 83.76172,86.8711 -0.0849,47.8175 -37.6594,86.7984 -83.75,86.90625 -46.10972,-0.10785 -83.68271,-39.08875 -83.76758,-86.90625 0.0849,-47.7973 37.64577,-86.76306 83.75586,-86.8711 z m 186.94531,142.5293 c -6.01482,4.61608 -12.20394,9.25558 -18.62305,13.94336 l -26.81445,48.19336 c -2.43901,4.36814 -6.81158,6.98213 -11.69336,7.00195 -2.36614,0 -4.62466,-0.63608 -6.72851,-1.87891 l -17.38477,-10.41015 c -20.40611,13.17223 -41.994,26.43135 -64.63867,39.61523 v 19.91602 c -0.0309,7.70117 -6.06505,13.98242 -13.4707,13.98242 h -47.42383 c -1.99595,1.06716 -3.96135,2.1301 -5.97266,3.19727 -5.92977,3.11735 -11.8448,6.17969 -17.73242,9.21679 4.7319,3.11716 10.2233,4.82194 15.94531,4.83399 h 55.1836 c 16.59893,-0.012 30.08789,-14.01377 30.08789,-31.21875 v -22.26758 c 13.92892,-5.77515 26.89132,-13.52131 38.55078,-23.04883 l 18.54492,11.10938 c 4.53875,2.7295 9.6979,4.16992 15.10742,4.16992 10.68097,0 20.63884,-5.97056 26.00977,-15.57813 l 27.60351,-49.57226 c 2.62786,-4.76357 4.00586,-10.16762 4.00586,-15.63867 0,-1.77854 -0.22167,-3.65593 -0.55664,-5.56641 z" inkscape:connector-curvature="0" /></g><g transform="translate(3657.668,2095.1675)" id="g71" /><g transform="translate(3945.8301,2285.0864)" id="g75" /></g></g></g></g></svg>
"logo-3"|<?xml version="1.0" encoding="UTF-8" standalone="no"?><svg xmlns:dc="http://purl.org/dc/elements/1.1/" xmlns:cc="http://creativecommons.org/ns#" xmlns:rdf="http://www.w3.org/1999/02/22-rdf-syntax-ns#" xmlns:svg="http://www.w3.org/2000/svg" xmlns="http://www.w3.org/2000/svg" xmlns:sodipodi="http://sodipodi.sourceforge.net/DTD/sodipodi-0.dtd" xmlns:inkscape="http://www.inkscape.org/namespaces/inkscape" width="26.987494mm" height="34.395832mm" color-count="3" viewBox="0 0 26.987493 34.395831" version="1.1" id="svg8" inkscape:version="0.92.2 (unknown)" sodipodi:docname="logo-3.svg"><defs id="defs2"><clipPath id="clipPath45" clipPathUnits="userSpaceOnUse"><path inkscape:connector-curvature="0" id="path43" d="M 0,3492 H 2579.484 V 0 H 0 Z" /></clipPath></defs><sodipodi:namedview id="base" pagecolor="#ffffff" bordercolor="#666666" borderopacity="1.0" inkscape:pageopacity="0.0" inkscape:pageshadow="2" inkscape:zoom="1.4" inkscape:cx="326.91543" inkscape:cy="248.03178" inkscape:document-units="mm" inkscape:current-layer="layer1" showgrid="false" fit-margin-top="0" fit-margin-left="0" fit-margin-right="0" fit-margin-bottom="0" inkscape:window-width="1855" inkscape:window-height="1056" inkscape:window-x="65" inkscape:window-y="24" inkscape:window-maximized="1" /><metadata id="metadata5"><rdf:RDF><cc:Work rdf:about=""><dc:format>image/svg+xml</dc:format><dc:type rdf:resource="http://purl.org/dc/dcmitype/StillImage" /><dc:title></dc:title></cc:Work></rdf:RDF></metadata><g inkscape:label="Layer 1" inkscape:groupmode="layer" id="layer1" transform="translate(3.15047e-7,-262.60417)"><g transform="matrix(0.01090783,0,0,-0.01141402,-0.6479156,300.31043)" inkscape:label="logo3-Color1" id="g37"><g id="g39"><g clip-path="url(#clipPath45)" id="g41"><g transform="translate(1328.7437,1073.958)" id="g47"><path inkscape:connector-curvature="0" id="path49" class="second" style="fill:#8cc63f;fill-opacity:1;fill-rule:nonzero;stroke:none" d="m 0,0 c 0,0 -977.237,1227.313 14.786,2156.379 0,0 628.572,172.674 1190.009,-12.513 C 1204.795,2143.866 -446.104,874.809 0,0" /></g><g transform="translate(1519.6509,2009.999)" id="g51"><path inkscape:connector-curvature="0" id="path53" class="third" style="fill:#5ea82f;fill-opacity:1;fill-rule:nonzero;stroke:none" d="M 0,0 C 0,0 -165.829,-469.405 481.03,-912.139 L 341.324,-1094.06 c 0,0 -336.831,-83.123 -495.084,157.236 0,0 -175.129,420.502 153.76,936.824" /></g><g transform="translate(1517.1431,845.9033)" id="g55"><path id="path57" class="first" style="fill:#ffdd05;fill-opacity:1;fill-rule:nonzero;stroke:none" d="m 0,0 v -150.965 h -1235.019 v 2177.879 h 665.407 c 42.266,64.472 91.822,128.264 149.711,190.959 h -835.337 c -111.859,0 -202.506,-90.646 -202.506,-202.453 V -353.418 c 0,-111.807 90.647,-202.454 202.506,-202.454 H 20.271 c 111.807,0 202.455,90.647 202.455,202.454 V -41.771 C 158.045,-43.024 76.332,-35.004 0,0" inkscape:connector-curvature="0" /></g><g transform="translate(1007.6128,502.6211)" id="g59"><path inkscape:connector-curvature="0" id="path61" style="fill:#ffffff;fill-opacity:1;fill-rule:nonzero;stroke:none" d="m 0,0 c 0,-59.613 -48.327,-107.993 -107.992,-107.993 -59.613,0 -107.941,48.38 -107.941,107.993 0,59.612 48.328,107.992 107.941,107.992 C -48.327,107.992 0,59.612 0,0" /></g><g transform="translate(1246.2993,2231.418)" id="g63"><path inkscape:connector-curvature="0" id="path65" style="fill:#ffffff;fill-opacity:1;fill-rule:nonzero;stroke:none" d="m 0,0 c -8.882,-63.505 -9.979,-90.751 -6.896,-135.683 20.48,2.351 35.162,6.844 45.872,16.196 10.606,9.457 16.458,22.178 17.868,39.341 1.411,18.496 -1.777,35.241 -11.128,47.936 C 36.416,-19.54 21.578,-7.994 0,0 m -22.1,114.523 c 14.42,65.7 24.138,101.907 49.216,181.059 -24.137,-11.808 -44.722,-26.776 -61.023,-43.233 -16.197,-16.562 -28.109,-38.61 -34.483,-64.55 -6.217,-24.687 -4.441,-40.778 3.971,-50.183 8.464,-9.456 22.884,-16.431 42.319,-23.093 m 158.097,353.55 c -10.031,-25.313 -14.786,-37.801 -23.929,-62.043 25.496,-2.377 44.566,-11.18 57.68,-24.79 13.166,-13.584 20.741,-34.666 24.19,-61.024 2.665,-20.036 3.239,-40.726 1.515,-60.736 -1.62,-20.088 -5.015,-37.617 -10.084,-52.481 -5.59,-16.536 -13.688,-29.336 -24.66,-38.688 -10.814,-9.378 -21.368,-12.54 -32.079,-10.267 -20.219,4.337 -29.832,21.656 -25.601,56.374 4.964,41.013 -3.03,71.577 -28.996,83.985 C 45.507,212.119 34.64,172.804 18.861,102.298 44.88,93.39 63.845,82.471 77.324,72.335 90.752,62.251 101.201,47.779 109.352,30.381 c 8.411,-18.182 13.74,-39.002 16.143,-60.631 2.456,-21.656 2.038,-43.286 -0.47,-63.584 -3.187,-25.47 -9.195,-44.801 -18.495,-59.064 -9.404,-14.263 -21.943,-21.552 -39.551,-25.288 -17.606,-3.787 -39.602,-3.265 -67.658,-2.873 4.441,-20.689 7.628,-29.493 15.412,-44.017 3.031,-5.695 4.442,-9.143 3.762,-11.076 -0.574,-1.986 -4.598,-2.404 -12.225,-1.881 -7.106,0.549 -12.8,1.385 -17.084,3.213 -4.285,1.776 -7.837,4.441 -10.45,8.568 -9.195,14.551 -12.905,23.564 -18.286,45.428 -24.922,0.732 -48.328,0.888 -69.487,2.378 -21.212,1.645 -40.021,3.84 -55.694,8.724 -15.779,4.833 -28.004,11.129 -36.259,19.958 -8.203,8.804 -12.697,19.331 -13.323,31.975 -0.314,9.222 4.284,20.011 13.897,32.027 9.562,11.86 21.525,20.82 35.58,25.627 11.232,3.892 20.481,4.467 27.795,2.246 7.419,-2.429 12.33,-7.445 15.047,-14.498 5.903,-15.204 11.755,-26.045 16.666,-33.202 4.859,-7.132 12.278,-12.905 21.787,-17.712 9.613,-4.911 21.839,-7.993 36.52,-10.266 -3.971,47.283 -2.978,76.358 6.269,144.643 -29.467,5.591 -55.433,9.692 -76.331,14.943 -20.951,5.198 -37.513,14.916 -48.798,32.079 -11.338,17.136 -14.055,43.886 -5.538,83.985 11.076,52.22 39.027,106.556 81.347,155.824 42.319,49.347 95.715,87.434 152.82,102.69 8.568,23.719 13.009,35.893 22.518,60.579 12.487,32.68 28.161,51.28 45.036,53.317 17.085,1.96 18.443,-14.393 5.695,-46.42" /></g></g></g></g></g></svg>
"logo-4"|<?xml version="1.0" encoding="UTF-8" standalone="no"?><svg xmlns:dc="http://purl.org/dc/elements/1.1/" xmlns:cc="http://creativecommons.org/ns#" xmlns:rdf="http://www.w3.org/1999/02/22-rdf-syntax-ns#" xmlns:svg="http://www.w3.org/2000/svg" xmlns="http://www.w3.org/2000/svg" xmlns:sodipodi="http://sodipodi.sourceforge.net/DTD/sodipodi-0.dtd" xmlns:inkscape="http://www.inkscape.org/namespaces/inkscape" width="29.368753mm" height="49.74168mm" color-count="3" viewBox="0 0 29.368753 49.74168" version="1.1" id="svg8" inkscape:version="0.92.2 (unknown)" sodipodi:docname="logo-4.svg"><defs id="defs2"><clipPath id="clipPath64" clipPathUnits="userSpaceOnUse"><path inkscape:connector-curvature="0" id="path62" d="M 0,3492 H 2384 V 0 H 0 Z" /></clipPath></defs><sodipodi:namedview id="base" pagecolor="#ffffff" bordercolor="#666666" borderopacity="1.0" inkscape:pageopacity="0.0" inkscape:pageshadow="2" inkscape:zoom="1.979899" inkscape:cx="105.23024" inkscape:cy="127.44743" inkscape:document-units="mm" inkscape:current-layer="layer1" showgrid="false" fit-margin-top="0" fit-margin-left="0" fit-margin-right="0" fit-margin-bottom="0" inkscape:window-width="1855" inkscape:window-height="1056" inkscape:window-x="65" inkscape:window-y="24" inkscape:window-maximized="1" /><metadata id="metadata5"><rdf:RDF><cc:Work rdf:about=""><dc:format>image/svg+xml</dc:format><dc:type rdf:resource="http://purl.org/dc/dcmitype/StillImage" /><dc:title></dc:title></cc:Work></rdf:RDF></metadata><g inkscape:label="Layer 1" inkscape:groupmode="layer" id="layer1" transform="translate(-8.06168e-7,-247.25832)"><g transform="matrix(0.01587941,0,0,-0.01499071,-3.7873147,298.01645)" inkscape:label="logo4-Color1" id="g56"><g id="g58"><g clip-path="url(#clipPath64)" id="g60"><g transform="translate(261.9004,266.8906)" id="g66"><path id="path68" class="third" style="fill:#ec1934;fill-opacity:1;fill-rule:nonzero;stroke:none;stroke-width:0.05831306" transform="matrix(16.662038,0,0,-17.64982,-23.3956,3119.0818)"  d="m 110.9375,111.38477 c -6.889,12.44752 -16.854284,22.64155 -28.328125,30.99414 v -16.75 c -14.726161,17.09532 -36.103993,33.84519 -67.15625,46.08789 -5.444162,1.37566 -10.636063,2.5219 -15.40625,3.46093 V 185.875 C 92.672939,173.48915 110.9375,111.38477 110.9375,111.38477 Z M 82.609375,161.20312 C 71.986005,171.20555 57.995763,180.84627 39.708984,188 h 37.31836 c 3.083296,0 5.582031,-2.37644 5.582031,-5.30859 z" /></g><g transform="translate(246.8193,675.8555)" id="g70"><path id="path72" class="second" style="fill:#100f0d;fill-opacity:1;fill-rule:nonzero;stroke:none;stroke-width:0.05831306" transform="matrix(16.662038,0,0,-17.64982,-8.3145,2710.1169)"  d="M 111,51.169922 C 106.09505,69.290056 95.630604,85.026509 82.609375,98.472656 V 73.667969 C 71.444644,96.400424 52.144244,121.25321 18.992188,142.72266 c -6.836569,3.36835 -13.2702794,6.24181 -18.945313,8.60937 v 12.15235 C 107.73358,128.44634 111,51.169922 111,51.169922 Z" /></g><g transform="translate(1521.9395,67.8057)" id="g74" /><g transform="translate(1593.3398,2488.166)" id="g78"><path id="path80" class="first" style="fill:#4396d8;fill-opacity:1;fill-rule:nonzero;stroke:none;stroke-width:0.05831306" transform="matrix(16.662038,0,0,-17.64982,-1354.835,897.80638)"  d="M 92.234375,0 C 90.828069,17.570119 84.572771,33.974219 75.59375,48.923828 H 5.5820312 C 2.4998153,48.923828 0,51.300324 0,54.232422 v 75.007808 c 0.01526906,-0.01 0.0315961,-0.0214 0.046875,-0.0312 v 8.44532 C 103.87409,81.018252 92.234375,0 92.234375,0 Z" /></g><g transform="translate(2087.9912,2482.8403)" id="g82" /><g transform="translate(1775.332,3385.9727)" id="g86" /><g transform="translate(239.2979,294.1133)" id="g90" /></g></g></g></g></svg>
"logo-5"|<?xml version="1.0" encoding="UTF-8" standalone="no"?><svg xmlns:dc="http://purl.org/dc/elements/1.1/" xmlns:cc="http://creativecommons.org/ns#" xmlns:rdf="http://www.w3.org/1999/02/22-rdf-syntax-ns#" xmlns:svg="http://www.w3.org/2000/svg" xmlns="http://www.w3.org/2000/svg" xmlns:xlink="http://www.w3.org/1999/xlink" xmlns:sodipodi="http://sodipodi.sourceforge.net/DTD/sodipodi-0.dtd" xmlns:inkscape="http://www.inkscape.org/namespaces/inkscape" width="53.975002mm" height="52.652077mm" color-count="3" viewBox="0 0 53.975002 52.652077" version="1.1" id="svg8" inkscape:version="0.92.2 (unknown)" sodipodi:docname="logo-5.svg"><defs id="defs2"><linearGradient id="linearGradient57" spreadMethod="pad" gradientTransform="matrix(31.91028,61.538998,-61.693672,31.830277,99.508101,66.73569)" gradientUnits="userSpaceOnUse" y2="0" x2="1" y1="-0.037381161" x1="0.11799482"><stop id="stop51" offset="0" style="stop-opacity:1;stop-color:#5cc9f3" /><stop id="stop53" offset="0.74461937" style="stop-opacity:1;stop-color:#52b0e6" /><stop id="stop55" offset="1" style="stop-opacity:1;stop-color:#4595d7" /></linearGradient><linearGradient inkscape:collect="always" xlink:href="#linearGradient57" id="linearGradient179" gradientUnits="userSpaceOnUse" gradientTransform="matrix(31.91028,61.539002,-61.693672,31.830279,99.508101,66.735694)" x1="0.11799482" y1="-0.037381161" x2="1" y2="0" spreadMethod="pad" /><linearGradient inkscape:collect="always" xlink:href="#linearGradient57" id="linearGradient184" gradientUnits="userSpaceOnUse" gradientTransform="matrix(31.91028,61.539002,-61.693672,31.830279,99.508101,66.735694)" x1="0.11799482" y1="-0.037381161" x2="1" y2="0" spreadMethod="pad" /><linearGradient inkscape:collect="always" xlink:href="#linearGradient57" id="linearGradient189" gradientUnits="userSpaceOnUse" gradientTransform="matrix(31.91028,61.539002,-61.693672,31.830279,99.508101,66.735694)" x1="0.11799482" y1="-0.037381161" x2="1" y2="0" spreadMethod="pad" /></defs><sodipodi:namedview id="base" pagecolor="#ffffff" bordercolor="#666666" borderopacity="1.0" inkscape:pageopacity="0.0" inkscape:pageshadow="2" inkscape:zoom="2.8" inkscape:cx="163.46493" inkscape:cy="142.93117" inkscape:document-units="mm" inkscape:current-layer="layer1" showgrid="false" fit-margin-top="0" fit-margin-left="0" fit-margin-right="0" fit-margin-bottom="0" inkscape:window-width="1855" inkscape:window-height="1056" inkscape:window-x="65" inkscape:window-y="24" inkscape:window-maximized="1" /><metadata id="metadata5"><rdf:RDF><cc:Work rdf:about=""><dc:format>image/svg+xml</dc:format><dc:type rdf:resource="http://purl.org/dc/dcmitype/StillImage" /><dc:title></dc:title></cc:Work></rdf:RDF></metadata><g inkscape:label="Layer 1" inkscape:groupmode="layer" id="layer1" transform="translate(9.365e-8,-244.34792)"><g transform="matrix(0.01655535,0,0,-0.01651384,-2.0174516,299.50728)" inkscape:label="logo5-Color1" id="g37"><g id="g39"><g id="g41"><g id="g47"><g id="g49"><path id="path177" class="first" style="fill:#38A2FF;stroke:none;stroke-width:0.06249291" transform="matrix(15.981742,0,0,-16.021915,121.861,3340.1898)"  d="M 95.464844,0 C 86.626696,0.21582948 77.550922,1.5693134 68.595703,4.0917969 71.001198,5.5937397 73.369458,7.1717655 75.693359,8.8144531 84.462554,6.818437 93.275482,6.0060447 101.76562,6.3125 99.741673,4.1392257 97.64358,2.0315933 95.464844,0 Z m 8.236326,0.12695312 c 2.14001,2.20029978 4.19667,4.47744288 6.16016,6.83203128 4.07853,0.5076796 8.05421,1.2738074 11.86719,2.3203125 6.24362,1.5166101 12.108,3.5649151 17.60546,6.0351561 -1.21326,-2.780879 -2.54157,-5.5277945 -3.98046,-8.2304686 C 131.57082,5.6580615 127.63987,4.4057949 123.54883,3.3769531 117.28543,1.5987636 110.6073,0.51361122 103.70117,0.12695312 Z M 61.671875,6.2851562 C 52.841987,9.4080049 44.232649,13.711362 36.201172,19.246094 c 2.380341,0.924608 4.757173,1.920145 7.125,2.984375 C 51.384868,17.13551 59.977695,13.278762 68.734375,10.640625 66.416793,9.1198954 64.062666,7.6652045 61.671875,6.2851562 Z M 143.0918,10.365234 c 1.35423,2.860208 2.59313,5.759511 3.70703,8.6875 9.00746,4.994856 16.85902,11.162431 23.50586,18.013672 0.0982,-2.793424 0.019,-5.607053 -0.22852,-8.429687 -7.66587,-7.13685 -16.67492,-13.414191 -26.98437,-18.271485 z m -43.550784,0.96875 c -5.958675,0 -12.049098,0.5783 -18.138672,1.744141 2.194441,1.723015 4.335025,3.501685 6.408203,5.347656 8.147547,-1.096498 16.218723,-1.059642 23.859373,0.05664 -1.65827,-2.360829 -3.42317,-4.654981 -5.26953,-6.888672 -2.26158,-0.173512 -4.55018,-0.259767 -6.859374,-0.259766 z m 14.671874,1.210938 c 1.33753,1.823065 2.64068,3.672672 3.86523,5.578125 0.39289,0.609727 0.77482,1.227443 1.15626,1.847656 1.17656,0.297093 2.33895,0.613531 3.48632,0.966797 7.92067,2.172275 15.16214,5.254773 21.72657,9.001953 -0.7294,-2.761093 -1.58812,-5.504192 -2.56836,-8.222656 -5.34698,-2.651618 -11.07819,-4.903737 -17.21094,-6.646485 -3.36071,-1.069472 -6.85841,-1.91248 -10.45508,-2.52539 z m -39.685546,2.107422 c -8.600001,2.287929 -17.086716,5.766893 -25.072266,10.498047 2.242497,1.130951 4.469286,2.325216 6.669922,3.578125 7.93956,-4.282947 16.33075,-7.302465 24.765625,-9.101563 -2.062729,-1.721891 -4.187799,-3.379856 -6.363281,-4.974609 z m -43.677735,8.527344 c -6.898684,5.422198 -13.276111,11.823528 -18.875,19.248046 2.301064,0.482589 4.610251,1.030326 6.923829,1.632813 5.653066,-7.070129 12.074668,-13.101241 18.992187,-18.136719 -2.346991,-0.987148 -4.69609,-1.90298 -7.041016,-2.74414 z m 73.277341,1.667968 c -3.01344,0 -6.062252,0.172747 -9.124997,0.519532 1.826584,1.911694 3.589914,3.866948 5.259767,5.882812 6.85908,-0.376297 13.58135,0.193498 19.88867,1.708984 -1.15256,-2.426489 -2.41914,-4.797776 -3.77344,-7.121093 -3.98004,-0.658848 -8.08111,-0.990235 -12.25,-0.990235 z m 44.95117,0.820313 c 0.88095,2.850783 1.63751,5.721569 2.25196,8.601562 6.58107,4.560192 12.34999,9.811382 17.29883,15.462891 0.55907,-2.388978 0.98527,-4.814214 1.26953,-7.263672 C 163.96611,36.193907 157.023,30.471015 149.07812,25.667969 Z m -60.738276,0.726562 c -7.841261,1.522852 -15.662717,4.173339 -23.113282,7.957031 2.018867,1.350847 4.001658,2.757143 5.945313,4.207032 7.262412,-3.345917 14.836228,-5.556717 22.367187,-6.638672 -1.660448,-1.892845 -3.393595,-3.736716 -5.199218,-5.525391 z m 35.044926,0.978516 c 1.25912,2.471427 2.42485,4.998959 3.48437,7.570312 7.45369,2.441157 14.17286,5.795591 20.15625,9.808594 -0.20792,-2.599564 -0.55964,-5.195229 -1.02148,-7.78125 -5.59051,-3.332311 -11.72885,-6.159563 -18.4375,-8.304687 -1.36775,-0.481591 -2.76884,-0.902067 -4.18164,-1.292969 z m -79.402348,1.287109 c -6.863332,4.717601 -13.253223,10.423603 -18.904297,17.144532 2.213213,0.675449 4.42246,1.409557 6.621094,2.193359 C 37.362869,41.63988 43.75108,36.32273 50.568359,31.996094 48.390624,30.822389 46.19138,29.710842 43.982422,28.660156 Z m 15.753906,8.712891 c -6.531015,3.921254 -12.682432,8.76101 -18.191406,14.529297 2.100334,0.918242 4.1837,1.878298 6.240234,2.894531 5.437893,-5.406532 11.473334,-9.890421 17.84961,-13.4375 C 63.701622,39.982448 61.73636,38.6488 59.736328,37.373047 Z M 108.21289,40.3125 c -0.42273,0 -0.84523,0.0027 -1.26953,0.0098 1.34597,2.063798 2.60869,4.166314 3.76758,6.3125 5.31456,0.171952 10.45844,0.969221 15.24218,2.339843 -0.59759,-2.353589 -1.3007,-4.670652 -2.09179,-6.949218 -4.97092,-1.133011 -10.24158,-1.712829 -15.64844,-1.712891 z m -7.82422,0.404297 c -6.854927,0.704597 -13.790645,2.322948 -20.480467,4.943359 1.780594,1.580211 3.515306,3.208114 5.191406,4.876953 6.280229,-2.173273 12.749292,-3.415951 19.099611,-3.802734 -1.17246,-2.051253 -2.45744,-4.052769 -3.81055,-6.017578 z m 52.1543,0.546875 c 0.35528,2.687132 0.57834,5.37749 0.66406,8.0625 4.36479,3.560561 8.25256,7.478151 11.67578,11.615234 0.9081,-2.041953 1.69284,-4.128843 2.37305,-6.25 -4.26136,-4.864525 -9.16318,-9.40749 -14.71289,-13.427734 z m -22.51172,2.509766 c 0.72627,2.382798 1.35597,4.789566 1.88477,7.210937 5.47549,2.018922 10.44871,4.608552 14.88671,7.669922 0.26118,-2.309899 0.4119,-4.624099 0.44532,-6.943359 -4.82244,-3.031046 -10.16417,-5.604143 -16.05664,-7.544922 -0.38031,-0.138623 -0.77353,-0.260197 -1.16016,-0.392578 z M 8.5039062,47.318359 C 6.7755599,49.90644 5.1262577,52.597053 3.5859375,55.408203 2.4637194,56.967567 1.1996815,59.599169 0,62.654297 2.1045891,63.005503 4.211768,63.409436 6.3183594,63.853516 7.3716863,61.626004 8.3743758,59.727902 9.25,58.515625 c 1.876829,-3.425059 3.928194,-6.652701 6.099609,-9.726563 -2.290551,-0.552368 -4.573985,-1.042289 -6.8457028,-1.470703 z m 65.8417968,0.791016 c -6.158966,3.001951 -12.014065,6.890803 -17.291015,11.732422 1.928942,1.145556 3.835538,2.325195 5.691406,3.5625 5.126475,-4.463262 10.798083,-8.007584 16.75,-10.658203 -1.669718,-1.588512 -3.382373,-3.137834 -5.150391,-4.636719 z m -52.917969,2.292969 c -2.777482,3.751362 -5.341988,7.777474 -7.638672,12.09375 -0.495368,0.699479 -1.018034,1.628431 -1.548828,2.71875 2.123298,0.537826 4.23905,1.136773 6.345704,1.769531 0.307216,-0.538949 0.604521,-1.023839 0.886718,-1.419922 2.528761,-4.736325 5.398662,-9.090574 8.529297,-13.103515 -2.188122,-0.742118 -4.377712,-1.427958 -6.574219,-2.058594 z m 93.083986,4.3125 c 0.84014,2.085706 1.5868,4.201364 2.23047,6.349609 3.97072,0.168894 7.83506,0.786334 11.49023,1.851563 -0.0721,-1.014174 -0.13867,-2.026802 -0.25781,-3.056641 -0.14223,-1.218519 -0.31128,-2.427177 -0.50781,-3.628906 -4.1411,-1.006934 -8.50037,-1.509384 -12.95508,-1.515625 z m -6.21289,0.30664 c -5.27277,0.532646 -10.58859,1.759458 -15.755861,3.667969 1.42425,1.725075 2.793123,3.485228 4.089843,5.283203 4.587298,-1.535272 9.276868,-2.477513 13.910158,-2.818359 -0.66044,-2.076344 -1.39667,-4.125312 -2.24414,-6.132813 z m 44.83594,0.804688 c -0.13172,2.39834 -0.38075,4.784829 -0.75586,7.158203 2.66554,2.291112 5.10705,4.74064 7.32226,7.318359 1.16195,-1.729256 2.22944,-3.505504 3.20117,-5.322265 -2.90919,-3.266651 -6.15939,-6.347329 -9.76757,-9.154297 z m -115.376958,0.34375 c -3.556987,4.250615 -6.780839,8.937661 -9.591796,14.058594 2.03138,0.771256 4.042002,1.59118 6.02539,2.453125 2.842181,-5.036486 6.094851,-9.622044 9.689453,-13.738282 -2.020931,-0.971419 -4.062445,-1.902068 -6.123047,-2.773437 z m 95.386718,1.814453 c 0.30829,2.3182 0.51374,4.638681 0.61524,6.960937 0.15142,0.06673 0.30572,0.125534 0.45507,0.195313 3.67307,1.551001 7.01928,3.433337 10.11328,5.527344 0.63742,-2.087766 1.15585,-4.183634 1.58008,-6.289063 -2.81721,-1.795915 -5.84374,-3.424194 -9.0957,-4.84375 -1.18804,-0.573339 -2.41817,-1.079614 -3.66797,-1.550781 z m -45.902342,2.933594 c -5.241482,2.483848 -10.240404,5.713578 -14.775391,9.695312 1.678165,1.386289 3.291327,2.826033 4.867187,4.298828 4.309293,-3.711728 9.058692,-6.661773 14.011719,-8.880859 -1.295666,-1.743862 -2.676146,-3.443443 -4.103515,-5.113281 z m -34.158204,2.896484 c -3.632207,3.908771 -6.918603,8.323977 -9.74414,13.28125 1.905987,1.015172 3.784234,2.069805 5.61914,3.177735 2.790059,-4.897864 6.069711,-9.225181 9.71875,-13.007813 -1.828649,-1.198671 -3.696084,-2.345249 -5.59375,-3.451172 z m 98.238286,4.464844 c -0.5089,2.098189 -1.12938,4.180173 -1.85352,6.246094 1.38558,1.174703 2.67817,2.415901 3.92578,3.685547 1.38971,-1.47811 2.68578,-3.011925 3.9043,-4.587891 -1.84235,-1.87618 -3.84588,-3.652067 -5.97656,-5.34375 z m -82.859379,6.166015 c -3.546485,3.724221 -6.716766,7.976505 -9.373047,12.759766 1.751311,1.355019 3.439456,2.770157 5.080078,4.230469 2.566428,-4.810412 5.658267,-9.051538 9.148437,-12.707031 -1.567413,-1.469675 -3.179368,-2.904208 -4.855468,-4.283204 z" /><path id="path151" class="second" style="fill:#3650FF;stroke:none;stroke-width:0.06249291" transform="matrix(15.981742,0,0,-16.021915,121.861,3340.1898)"  d="m 175.81641,34.410156 c 0.0146,2.797606 -0.12694,5.571192 -0.42579,8.3125 7.71274,9.223626 13.43484,19.333505 17.08594,29.261719 1.46605,-1.439466 2.85843,-2.95195 4.16992,-4.535156 -4.43374,-11.345844 -11.40463,-22.831535 -20.83007,-33.039063 z m -1.17774,13.447266 c -0.44513,2.418188 -1.00804,4.808073 -1.70703,7.154297 5.53394,7.301562 9.79477,15.081821 12.75195,22.777343 1.55809,-1.158038 3.05792,-2.383959 4.5,-3.666015 -3.54442,-8.943189 -8.73283,-17.953011 -15.54492,-26.265625 z m -3.29883,11.855469 c -0.79096,2.081586 -1.69536,4.121779 -2.69531,6.123047 3.89651,5.462892 7.02558,11.19651 9.39453,16.919921 1.65208,-0.933908 3.25436,-1.931181 4.81446,-2.976562 -2.81403,-6.818973 -6.65044,-13.642517 -11.51368,-20.066406 z m -4.68359,9.832031 c -1.03762,1.785617 -2.16838,3.529148 -3.38477,5.234375 2.77123,3.803478 5.10802,7.784403 7.00782,11.820312 1.74292,-0.756713 3.45984,-1.561545 5.13281,-2.427734 -2.29055,-5.004208 -5.20518,-9.952044 -8.75586,-14.626953 z m 32,3.603516 c -1.37732,1.541576 -2.82608,3.01094 -4.33398,4.416015 2.3229,7.614259 3.69559,15.093325 4.27343,22.3125 0.18809,-0.04163 0.3753,-0.07734 0.56446,-0.121094 1.51103,-0.352392 3.01722,-0.75015 4.51562,-1.179687 -0.62578,-8.17911 -2.21808,-16.702373 -5.01953,-25.427734 z m -37.64258,4.617187 c -1.24048,1.551999 -2.55508,3.064527 -3.95117,4.533203 1.93427,2.357708 3.67824,4.810165 5.20898,7.337891 1.88509,-0.619152 3.74178,-1.29292 5.56836,-2.021485 -1.9342,-3.402152 -4.22007,-6.703855 -6.82617,-9.849609 z m 31.11719,1.757813 c -1.48488,1.269511 -3.02235,2.479168 -4.60547,3.628906 1.91018,6.149702 3.13309,12.201415 3.75586,18.078126 1.7199,-0.25022 3.43222,-0.53974 5.13867,-0.88477 -0.61339,-6.297719 -1.84862,-12.803212 -3.84765,-19.451169 -0.13785,-0.455563 -0.29405,-0.91347 -0.44141,-1.371093 z m -7.3125,5.505859 c -1.56748,1.036143 -3.1755,2.019661 -4.82031,2.947265 0.45458,1.361332 0.86847,2.717736 1.23633,4.064454 0.93835,3.389669 1.63941,6.732597 2.16601,10.027344 1.76702,-0.11572 3.52564,-0.28485 5.2832,-0.49219 -0.49638,-3.470976 -1.16929,-6.995655 -2.08984,-10.578123 -0.50051,-1.972049 -1.09937,-3.965369 -1.77539,-5.96875 z m -7.2793,4.279297 c -1.66571,0.868248 -3.36813,1.682188 -5.09961,2.447265 1.2779,3.380246 2.29254,6.756061 2.98633,10.048831 0.0315,0.16153 0.0488,0.31609 0.0781,0.47656 1.84335,0.0146 3.68635,-0.0125 5.52539,-0.0918 -0.0627,-0.39077 -0.11961,-0.775 -0.1875,-1.16797 -0.72414,-3.818979 -1.82618,-7.759301 -3.30274,-11.712886 z M 170.40625,92.625 c -1.77021,0.730624 -3.57007,1.408702 -5.39453,2.035156 1.19336,2.419187 2.21892,4.865049 3.08203,7.314454 2.00942,0.14905 4.01893,0.24938 6.02734,0.29101 -0.97292,-3.209242 -2.21738,-6.440753 -3.71484,-9.64062 z" /><path id="path97" class="third" style="fill:#4FFFE2;stroke:none;stroke-width:0.06249291" transform="matrix(15.981742,0,0,-16.021915,121.861,3340.1898)"  d="m 203.9707,104.30078 c -1.68148,0.40233 -3.37536,0.75929 -5.08593,1.07617 0.15886,5.98512 -0.19013,11.75941 -0.97071,17.24414 1.57474,0.35134 3.15393,0.67306 4.74024,0.96485 0.98437,-6.10801 1.47208,-12.56205 1.3164,-19.28516 z m -7.16992,1.42774 c -1.697,0.27836 -3.40402,0.5216 -5.12305,0.7207 0.24873,5.00839 0.0864,9.86492 -0.41211,14.52734 1.60096,0.43984 3.20579,0.85575 4.82032,1.23828 0.67596,-5.26379 0.95618,-10.77121 0.71484,-16.48632 z m -7.5293,0.96679 c -1.72947,0.16153 -3.46783,0.28459 -5.21289,0.3711 0.41904,4.06087 0.54896,8.02598 0.42579,11.87109 1.64879,0.54207 3.30949,1.05535 4.98046,1.53906 0.27375,-4.43942 0.22249,-9.04386 -0.19336,-13.78125 z m -19.62109,0.27735 c 0.61339,2.31395 1.08264,4.60118 1.41602,6.83593 1.90067,0.8318 3.83049,1.61812 5.77734,2.37696 -0.0753,-0.74011 -0.13792,-1.47609 -0.23828,-2.22657 -0.26324,-2.20248 -0.66827,-4.46761 -1.18555,-6.76171 -1.92169,-0.0355 -3.84571,-0.10678 -5.76953,-0.22461 z m 12.07617,0.20117 c -1.79836,0.0542 -3.60336,0.061 -5.41211,0.0391 0.4283,3.11349 0.6917,6.13772 0.80664,9.07813 1.73886,0.67232 3.49181,1.31505 5.25977,1.92578 -0.006,-3.55014 -0.21855,-7.23213 -0.6543,-11.04297 z m -9.96484,12.88476 c 0.18383,2.82463 0.18575,5.57635 0.0176,8.25 2.75239,2.68508 5.69579,5.32957 8.80859,7.89063 0.81412,-3.93692 1.37872,-8.0869 1.63477,-12.45117 -3.57477,-1.11947 -7.07752,-2.34286 -10.46094,-3.68946 z m 12.39258,4.27735 c -0.43049,4.52374 -1.20997,8.843 -2.25391,12.92578 1.32088,1.06317 2.66766,2.11174 4.04492,3.14258 1.38145,-4.60083 2.43979,-9.51922 3.0625,-14.70899 -1.63224,-0.42841 -3.24843,-0.88302 -4.85351,-1.35937 z m 6.43359,1.7832 c -0.86843,5.31179 -2.15623,10.32392 -3.73828,14.95508 1.26444,0.93378 2.55224,1.8512 3.85742,2.7539 1.9446,-5.10531 3.52991,-10.66968 4.61133,-16.60156 -1.58612,-0.34708 -3.16518,-0.71446 -4.73047,-1.10742 z m 6.48828,1.46289 c -1.19849,6.20301 -2.91175,11.97517 -4.97461,17.19727 1.23522,0.83286 2.48735,1.65452 3.75586,2.45508 2.42646,-5.68088 4.45815,-11.97782 5.88672,-18.76758 -1.56435,-0.27107 -3.11832,-0.56571 -4.66797,-0.88477 z m -25.62109,4.29297 c -1.29154,10.91842 -5.19552,20.38593 -9.6543,27.90625 -6.62193,11.53133 -14.50511,19.26662 -21.34961,24.66797 -6.03564,4.67797 -11.31614,7.57902 -15.75195,9.46875 -4.64793,1.35302 -8.22281,1.80516 -10.57813,2.35547 -5.61559,0.60873 -6.28846,0.84961 -6.2832,0.84961 0.003,0 0.23933,0.0692 1.84961,0.11718 -5.40867,0.48459 -6.1086,0.67774 -6.10547,0.67774 0,0 0.10273,0.0224 0.5625,0.0527 -0.22469,0.0333 -0.28728,0.0488 -0.28515,0.0488 0.003,0 0.58233,0.12193 5.33789,0.16992 -0.87244,0.12714 -1.4969,0.22833 -1.93165,0.3086 -2.03028,0.24398 -2.3664,0.34961 -2.36328,0.34961 0.006,0 0.66139,0.16711 7.11719,0.15039 3.10667,-0.39715 8.10412,-0.4431 14.89844,-2.00977 8.35128,-1.15067 19.46544,-3.86479 33.51172,-11.06836 11.55512,-6.52394 25.28757,-17.53803 34.20312,-36.0332 -1.24135,-0.78074 -2.46649,-1.58443 -3.67969,-2.39844 -6.33438,13.98079 -15.54004,23.69111 -24.52148,30.49024 7.84971,-6.49473 15.70908,-15.35706 21.48242,-27.5879 0.58936,-1.2373 1.15183,-2.51734 1.69727,-3.82031 -1.27683,-0.87867 -2.53961,-1.7755 -3.78516,-2.6875 -0.54862,1.44353 -1.11119,2.8625 -1.71094,4.22071 -2.86201,6.52287 -6.36733,12.08229 -10.16992,16.8457 2.33761,-3.31771 4.55194,-6.9727 6.57813,-10.9961 1.68761,-3.28331 3.19728,-6.86294 4.49414,-10.67578 -1.3334,-0.99232 -2.64614,-2.00442 -3.93555,-3.0332 -1.21219,4.0859 -2.68238,7.91341 -4.35742,11.40625 -3.66581,7.87802 -8.15051,14.33085 -12.86523,19.62891 6.65412,-8.09367 12.75678,-18.76506 16.02539,-31.99219 -2.93842,-2.39222 -5.75664,-4.86778 -8.42969,-7.41211 z" /></g></g></g></g></g></g></svg>
"logo-6"|<?xml version="1.0" encoding="UTF-8" standalone="no"?><svg xmlns:dc="http://purl.org/dc/elements/1.1/" xmlns:cc="http://creativecommons.org/ns#" xmlns:rdf="http://www.w3.org/1999/02/22-rdf-syntax-ns#" xmlns:svg="http://www.w3.org/2000/svg" xmlns="http://www.w3.org/2000/svg" xmlns:sodipodi="http://sodipodi.sourceforge.net/DTD/sodipodi-0.dtd" xmlns:inkscape="http://www.inkscape.org/namespaces/inkscape" width="31.75mm" height="40.481251mm" color-count="2" viewBox="0 0 31.75 40.481251" version="1.1" id="svg8" inkscape:version="0.92.2 (unknown)" sodipodi:docname="logo-6.svg"><defs id="defs2"><clipPath id="clipPath45" clipPathUnits="userSpaceOnUse"><path inkscape:connector-curvature="0" id="path43" d="M 0,3492 H 2936 V 0 H 0 Z" /></clipPath></defs><sodipodi:namedview id="base" pagecolor="#ffffff" bordercolor="#666666" borderopacity="1.0" inkscape:pageopacity="0.0" inkscape:pageshadow="2" inkscape:zoom="3.959798" inkscape:cx="84.851738" inkscape:cy="79.937447" inkscape:document-units="mm" inkscape:current-layer="g47" showgrid="false" fit-margin-top="0" fit-margin-left="0" fit-margin-right="0" fit-margin-bottom="0" inkscape:window-width="1855" inkscape:window-height="1056" inkscape:window-x="65" inkscape:window-y="24" inkscape:window-maximized="1" /><metadata id="metadata5"><rdf:RDF><cc:Work rdf:about=""><dc:format>image/svg+xml</dc:format><dc:type rdf:resource="http://purl.org/dc/dcmitype/StillImage" /><dc:title></dc:title></cc:Work></rdf:RDF></metadata><g inkscape:label="Layer 1" inkscape:groupmode="layer" id="layer1" transform="translate(-2.2105884e-7,-256.51875)"><g transform="matrix(0.01202125,0,0,-0.01214899,-1.2780714,297.39429)" inkscape:label="logo6-Color1" id="g37"><g id="g39"><g clip-path="url(#clipPath45)" id="g41"><g transform="translate(2031.625,1335.3838)" id="g47"><path  d="m -213.91992,-1304.9121 c -14.92378,-0.4263 -31.07428,6.9667 -36.71289,21.5605 -6.3862,15.674 -3.51812,33.1156 -3.69141,49.5684 3.90361,84.5278 6.03259,169.2197 2.32617,253.79492 -5.06706,126.1768 -19.75568,251.73394 -41.50195,376.11914 68.66038,55.89124 134.91798,114.70199 198.84375,175.91992 5.645691,-32.70128 10.663101,-65.77038 15.482422,-98.4414 37.031735,-6.21014 74.1138525,7.4878 106.326172,24.73828 59.663693,32.9649 110.288066,79.92433 157.725966,128.37158 63.62792,65.97567 121.01388,137.76239 175.28575,211.56982 -3.95638,79.124321 -11.56931,158.000196 -21.08789,236.658206 33.45599,47.465474 65.5331,95.899094 96.28906,145.156254 28.70293,-179.917482 51.83546,-361.0757 59.03012,-543.25655 2.70816,-78.9557 2.87847,-158.28296 -5.61561,-236.90444 -19.15739,-77.56546 -48.59357,-152.35543 -83.67813,-224.03506 -75.9397,-153.96535 -185.66004,-293.76007 -327.915917,-391.49917 -63.443055,-43.8469 -133.017954,-78.6424 -205.823073,-103.9709 -26.80577,-12.416 -55.21286,-25.1262 -85.28254,-25.3495 z" id="path74" class="second" style="fill:#4396d8;fill-opacity:1;fill-rule:nonzero;stroke:none"/><path  d="m -1414.4043,-1008.3984 c -98.4394,0.5617 -198.8537,20.62581 -284.1104,71.53522 -75.3047,44.35888 -135.4977,112.71501 -172.2498,191.82245 -45.8763,97.62072 -59.4522,207.32871 -56.029,314.24899 5.0962,144.79796 39.6664,287.09324 87.6609,423.2885461 71.158,199.8430439 172.4205,387.9806039 290.0709,564.1185439 135.9708,202.61052 294.4829,389.95595 470.3449,559.03695 8.9637,4.2643 -0.2138,-7.0436 -3.4215,-9.3044 -155.062,-160.24635 -293.9127,-336.5371 -410.3173,-526.77133 -97.3782,-160.04794 -179.6605,-330.32214 -232.1748,-510.548126 -34.5626,-120.432026 -56.2637,-246.078124 -48.4415,-371.582604 5.9431,-92.62192 29.9116,-186.28123 82.8284,-263.72081 46.3712,-68.63757 114.7873,-120.45215 192.3665,-148.62151 97.9955,-35.97969 205.1563,-37.74043 307.4787,-23.36965 138.0437,19.89744 270.51474,67.98267 395.78493,128.24344 157.50965,76.34552 304.34603,173.31597 441.25595,282.10081 C -436.029,-6.7695885 -556.81287,303.54623 -698.36447,603.07663 -883.7742,994.24123 -1105.27,1367.5287 -1346.7211,1726.5382 c -39.1217,58.3052 -79.1448,116.0204 -119.1637,173.6962 -13.052,21.2875 -22.0007,48.6543 -11.707,72.8828 10.294,23.6437 35.0132,36.3661 58.3711,43.8046 51.0417,15.4088 105.114,14.8711 157.9035,13.5775 120.924,-4.4893 241.2928,-18.5928 360.95648,-36.0933 171.5276,-25.9033 342.14457,-60.3507 508.16736,-111.0583 100.12455,-31.2076 199.44271,-67.7522 290.36524,-120.6407 52.567558,-31.3054 103.8060909,-68.5458 138.505854,-119.8379 33.650763,-52.1588 57.673326,-109.7513 80.832046,-167.1233 53.50632,-136.5685 95.97858,-277.1635 135.27933,-418.3829 49.09425,-178.26794 91.49303,-358.35724 128.25581,-539.56798 90.63535,156.93041 166.52846,323.54377 212.50196,499.21488 29.65423,115.2274 46.72083,235.1256 35.53124,354.0078 -7.87253,81.8422 -30.64555,163.8132 -75.78515,233.2676 -48.9729,-31.0559 -87.39668,-78.5334 -107.9043,-132.629 -2.44399,-10.8007 -3.46991,-3.6156 -4.34668,3.2857 -14.54107,89.3007 -28.78751,178.8142 -43.51269,267.9819 -4.47938,1.744 -8.87732,7.1318 -0.90821,5.0606 -0.61497,6.9005 -2.39215,15.195 -3.45117,22.6328 60.2543,6.4192 120.19492,-10.9046 175.08594,-34.4141 54.62905,-23.9832 106.31965,-54.715 153.69141,-90.9668 -45.32939,2.0383 -91.6341,-4.2244 -133.45704,-22.3867 63.11574,-70.8372 99.89394,-161.8335 115.77513,-254.6127 20.9538,-122.2984 10.41923,-247.9066 -14.29042,-368.81885 C 654.12096,827.31434 589.02484,662.46416 509.60547,506.05664 391.36217,274.73805 240.32321,61.019614 69.14293,-134.05749 c -183.1476,-207.9278 -389.88568,-395.99525 -619.55561,-551.44266 -154.16253,-103.78527 -318.96337,-193.56222 -494.85492,-254.67954 -118.6514,-40.72078 -243.1488,-68.80301 -369.1367,-68.21871 z" id="path72" class="first" style="fill:#4396d8;fill-opacity:1;fill-rule:nonzero;stroke:none"/><path style="fill:#ffffff;fill-opacity:1;fill-rule:nonzero;stroke:none" d="m 211.30273,-807.53125 c 24.10226,0.45079 43.46242,19.05542 56.14844,38.12695 24.74708,38.42098 33.6836,85.32144 30.16033,130.48994 -2.732,27.75178 -10.21438,56.40397 -29.65252,77.42608 -12.76814,14.33235 -34.29493,20.59003 -52.27148,12.86523 -26.42579,-10.94275 -43.00706,-37.13109 -53.84961,-62.36718 -17.26222,-42.66893 -21.66811,-91.30191 -9.56483,-135.84297 6.75787,-23.33718 19.63025,-48.3992 43.26796,-57.85235 4.94846,-1.88509 10.3595,-2.88736 15.76171,-2.8457 z" id="path70" /><path style="fill:#ffffff;fill-opacity:1;fill-rule:nonzero;stroke:none;image-rendering:auto" d="M -146.03125,-146.37109 C 18.696993,11.487704 166.80997,186.8703 293.21289,376.875 c -42.2737,235.28339 -95.42334,468.69127 -159.85156,698.9219 -33.701134,118.4234 -69.475154,236.5197 -115.141602,350.9427 -16.2042288,38.9643 -32.487083,78.2831 -56.07129,113.5065 -23.092819,29.3514 -55.243118,49.8253 -87.028008,68.5952 -78.01203,44.0697 -163.00533,73.8634 -248.49233,99.7541 -153.99323,45.4723 -312.0063,75.7279 -470.90569,97.9824 -93.60476,12.6067 -187.66161,23.1489 -282.06421,25.9945 234.56242,-342.661 450.52911,-698.9146 631.36348,-1073.02091 141.23618,-293.01214 261.09151,-597.39328 341.6248,-912.90881 2.44076,2.32877 4.88151,4.65755 7.32227,6.98633 z" id="path49" /></g></g></g></g></g></svg>
"logo-7"|<?xml version="1.0" encoding="UTF-8" standalone="no"?><svg xmlns:dc="http://purl.org/dc/elements/1.1/" xmlns:cc="http://creativecommons.org/ns#" xmlns:rdf="http://www.w3.org/1999/02/22-rdf-syntax-ns#" xmlns:svg="http://www.w3.org/2000/svg" xmlns="http://www.w3.org/2000/svg" xmlns:sodipodi="http://sodipodi.sourceforge.net/DTD/sodipodi-0.dtd" xmlns:inkscape="http://www.inkscape.org/namespaces/inkscape" width="29.36875mm" height="41.804176mm" color-count="3" viewBox="0 0 29.36875 41.804176" version="1.1" id="svg8" inkscape:version="0.92.2 (unknown)" sodipodi:docname="logo-7.svg"><defs id="defs2"><clipPath id="clipPath850" clipPathUnits="userSpaceOnUse"><path inkscape:connector-curvature="0" id="path848" d="M 0,3492 H 2200 V 0 H 0 Z" /></clipPath></defs><sodipodi:namedview id="base" pagecolor="#ffffff" bordercolor="#666666" borderopacity="1.0" inkscape:pageopacity="0.0" inkscape:pageshadow="2" inkscape:zoom="3.959798" inkscape:cx="100.75909" inkscape:cy="97.615644" inkscape:document-units="mm" inkscape:current-layer="layer1" showgrid="false" fit-margin-top="0" fit-margin-left="0" fit-margin-right="0" fit-margin-bottom="0" inkscape:window-width="1855" inkscape:window-height="1056" inkscape:window-x="65" inkscape:window-y="24" inkscape:window-maximized="1" /><metadata id="metadata5"><rdf:RDF><cc:Work rdf:about=""><dc:format>image/svg+xml</dc:format><dc:type rdf:resource="http://purl.org/dc/dcmitype/StillImage" /><dc:title></dc:title></cc:Work></rdf:RDF></metadata><g inkscape:label="Layer 1" inkscape:groupmode="layer" id="layer1" transform="translate(-4.09932e-7,-255.19582)"><g transform="matrix(0.01409278,0,0,-0.01345793,-0.88811813,300.81509)" inkscape:label="logo7-Color1" id="g842"><g id="g844"><g clip-path="url(#clipPath850)" id="g846"><g transform="translate(2146.9766,436.0889)" id="g852"><path inkscape:connector-curvature="0" id="path854" class="first" style="fill:#7fcc2a;fill-opacity:1;fill-rule:nonzero;stroke:none" d="m 0,0 c 0,0 -1615.954,1318.775 -96.62,2248.543 0,0 -509.617,686.124 -1048.841,705.137 0,0 -1133.187,-2172.201 1145.461,-2953.68" /></g><g transform="translate(1867.6084,472.083)" id="g856"><path inkscape:connector-curvature="0" id="path858" class="second" style="fill:#7fcc2a;fill-opacity:1;fill-rule:nonzero;stroke:none" d="m 0,0 c -12.771,7.34 -25.294,14.824 -37.735,22.33 -885.169,367.03 -1176.148,966.839 -1224.001,1524.372 -408.643,-128.694 -542.853,-314.221 -542.853,-314.221 C -1536.75,227.575 0,0 0,0" /></g><g transform="translate(904.9995,1916.9819)" id="g860"><path inkscape:connector-curvature="0" id="path862" style="fill:#ffffff;fill-opacity:1;fill-rule:nonzero;stroke:none" d="M 0,0 C 13.498,162.45 98.838,287.952 190.667,280.322 282.498,272.712 345.985,134.853 332.508,-27.596 319.031,-190.067 233.649,-315.547 141.839,-307.939 50.031,-300.309 -13.498,-162.47 0,0" /></g><g transform="translate(540.4775,1164.7793)" id="g864"><path inkscape:connector-curvature="0" id="path866" style="fill:#ffffff;fill-opacity:1;fill-rule:nonzero;stroke:none" d="M 0,0 C -55.773,90.462 -59.547,189.342 -8.418,220.836 42.671,252.372 129.297,204.644 185.111,114.202 240.886,23.762 244.66,-75.119 193.529,-106.634 142.441,-138.17 55.795,-90.399 0,0" /></g><g transform="translate(1869.0186,446.041)" id="g868"><path inkscape:connector-curvature="0" id="path870" class="third" style="fill:#7fcc2a;fill-opacity:1;fill-rule:nonzero;stroke:none" d="M 0,0 C -11.694,-0.041 -1.782,0.104 -13.353,0.27 -906.939,5.743 -1433.143,354.279 -1569.883,621.394 -1765.776,348.971 -1668.452,124.61 -1668.452,124.61 -1114.671,-438.354 0,0 0,0" /></g><g transform="translate(693.4727,406.6055)" id="g872"><path inkscape:connector-curvature="0" id="path874" style="fill:#ffffff;fill-opacity:1;fill-rule:nonzero;stroke:none" d="m 0,0 c -79.866,27.533 -132.012,86.419 -116.462,131.577 15.529,45.138 92.867,59.422 172.754,31.95 C 136.158,135.993 188.305,77.13 172.775,31.951 157.225,-13.166 79.888,-27.451 0,0" /></g></g></g></g></g></svg>
"logo-8"|<?xml version="1.0" encoding="UTF-8" standalone="no"?><svg xmlns:dc="http://purl.org/dc/elements/1.1/" xmlns:cc="http://creativecommons.org/ns#" xmlns:rdf="http://www.w3.org/1999/02/22-rdf-syntax-ns#" xmlns:svg="http://www.w3.org/2000/svg" xmlns="http://www.w3.org/2000/svg" xmlns:sodipodi="http://sodipodi.sourceforge.net/DTD/sodipodi-0.dtd" xmlns:inkscape="http://www.inkscape.org/namespaces/inkscape" width="39.158348mm" height="31.48542mm" color-count="2" viewBox="0 0 39.158348 31.48542" version="1.1" id="svg8" inkscape:version="0.92.2 (unknown)" sodipodi:docname="logo-8.svg"><defs id="defs2" /><sodipodi:namedview id="base" pagecolor="#ffffff" bordercolor="#666666" borderopacity="1.0" inkscape:pageopacity="0.0" inkscape:pageshadow="2" inkscape:zoom="3.959798" inkscape:cx="74.274125" inkscape:cy="77.702393" inkscape:document-units="mm" inkscape:current-layer="layer1" showgrid="false" fit-margin-top="0" fit-margin-left="0" fit-margin-right="0" fit-margin-bottom="0" inkscape:window-width="1855" inkscape:window-height="1056" inkscape:window-x="65" inkscape:window-y="24" inkscape:window-maximized="1" /><metadata id="metadata5"><rdf:RDF><cc:Work rdf:about=""><dc:format>image/svg+xml</dc:format><dc:type rdf:resource="http://purl.org/dc/dcmitype/StillImage" /><dc:title></dc:title></cc:Work></rdf:RDF></metadata><g inkscape:label="Layer 1" inkscape:groupmode="layer" id="layer1" transform="translate(-6.64118e-7,-265.51458)"><g transform="matrix(0.00911789,0,0,-0.00943569,-0.49132778,297.80466)" inkscape:label="logo8-Color1" id="g842"><g transform="translate(2736.5859,1899.4634)" id="g844"><path id="path846" class="first" style="fill:#231f20;fill-opacity:1;fill-rule:nonzero;stroke:none;stroke-width:0.03505674" transform="matrix(29.018044,0,0,-28.040698,-2682.6997,1522.6584)"  d="m 60.425781,35.666016 -0.228515,29.033203 24.425781,-14.3125 z M 87.125,54.181641 62.695312,68.521484 86.896484,83.242188 Z m 5.324219,0.11914 0.228515,29.060547 24.201176,-14.720703 z M 60.875,72.285156 61.103516,101.34375 85.304688,86.623047 Z" /></g><g transform="translate(1820.3516,1395.2119)" id="g848" /><g transform="translate(1807.3096,2421.999)" id="g852" /><g transform="translate(1873.1904,1500.7354)" id="g856" /><g transform="translate(2730.0039,900.833)" id="g860"><path id="path862" class="second" style="fill:#4396d8;fill-opacity:1;fill-rule:nonzero;stroke:none;stroke-width:0.03505674" transform="matrix(29.018044,0,0,-28.040698,-2676.1177,2521.2888)"  d="M 119.1543,0 94.724609,14.337891 118.92578,29.060547 Z M 123.80078,0.05273437 123.57422,29.083984 148,14.771484 Z M 87.125,17.982422 62.695312,32.320312 86.896484,47.042969 Z m 4.646484,0.05273 -0.226562,29.033203 24.427738,-14.3125 z M 55.779297,35.613281 31.347656,49.951172 55.548828,64.673828 Z m -26.933594,18.6875 0.230469,29.060547 24.199219,-14.720703 z M 24.199219,54.355469 0,69.074219 l 24.427734,14.3125 z m 32.029297,17.982422 -24.199219,14.71875 24.425781,14.312499 z m 35.99414,17.578125 0.228516,29.058594 24.201168,-14.7207 z M 87.576172,89.96875 63.376953,104.6875 87.802734,119 Z" /></g><g transform="translate(1892.9668,486.5947)" id="g864" /><g transform="translate(890.9536,1899.4634)" id="g868" /><g transform="translate(53.8862,1485.2568)" id="g872" /><g transform="translate(983.3145,980.9736)" id="g876" /><g transform="translate(963.5391,2021.4429)" id="g880" /><g transform="translate(2802.5879,3020.0732)" id="g884" /><g transform="translate(3646.3594,3420.6294)" id="g888" /><g transform="translate(1873.1904,2515.8218)" id="g892" /><g transform="translate(2716.9316,2916.3774)" id="g896" /></g></g></svg>
"logo-9"|<?xml version="1.0" encoding="UTF-8" standalone="no"?><svg xmlns:dc="http://purl.org/dc/elements/1.1/" xmlns:cc="http://creativecommons.org/ns#" xmlns:rdf="http://www.w3.org/1999/02/22-rdf-syntax-ns#" xmlns:svg="http://www.w3.org/2000/svg" xmlns="http://www.w3.org/2000/svg" xmlns:sodipodi="http://sodipodi.sourceforge.net/DTD/sodipodi-0.dtd" xmlns:inkscape="http://www.inkscape.org/namespaces/inkscape" width="63.764603mm" height="38.893749mm" color-count="2" viewBox="0 0 63.764603 38.893749" version="1.1" id="svg8" inkscape:version="0.92.2 (unknown)" sodipodi:docname="logo-9.svg"><defs id="defs2"><clipPath id="clipPath850" clipPathUnits="userSpaceOnUse"><path inkscape:connector-curvature="0" id="path848" d="M 0,3492 H 5376 V 0 H 0 Z" /></clipPath></defs><sodipodi:namedview id="base" pagecolor="#ffffff" bordercolor="#666666" borderopacity="1.0" inkscape:pageopacity="0.0" inkscape:pageshadow="2" inkscape:zoom="2.8" inkscape:cx="169.72922" inkscape:cy="102.60961" inkscape:document-units="mm" inkscape:current-layer="layer1" showgrid="false" fit-margin-top="0" fit-margin-left="0" fit-margin-right="0" fit-margin-bottom="0" inkscape:window-width="1855" inkscape:window-height="1056" inkscape:window-x="65" inkscape:window-y="24" inkscape:window-maximized="1" /><metadata id="metadata5"><rdf:RDF><cc:Work rdf:about=""><dc:format>image/svg+xml</dc:format><dc:type rdf:resource="http://purl.org/dc/dcmitype/StillImage" /><dc:title></dc:title></cc:Work></rdf:RDF></metadata><g inkscape:label="Layer 1" inkscape:groupmode="layer" id="layer1" transform="translate(-1.1208509e-7,-258.10625)"><g transform="matrix(0.01195262,0,0,-0.01192818,-0.22428266,298.33342)" inkscape:label="logo9-Color1" id="g842"><g id="g844"><g clip-path="url(#clipPath850)" id="g846"><g transform="translate(3516.9043,2671.9463)" id="g852"><path id="path854" class="first" style="fill:#4396d8;fill-opacity:1;fill-rule:nonzero;stroke:none;stroke-width:0.04512905" transform="matrix(22.136011,0,0,-22.181367,-3498.14,700.50197)"  d="m 90.496094,31.580078 c -2.003387,0 -3.622531,1.656242 -3.644532,3.638672 -0.228521,20.51134 -0.456119,39.984011 -0.683593,60.472656 -17.539754,4.389554 -39.977863,9.220294 -50.445313,10.363284 -12.723201,1.44382 -22.385937,0.84927 -26.7421872,-1.18555 -1.8321278,-0.83191 -2.537598,-1.6728 -2.8105469,-2.40625 -0.2593512,-0.70415 -0.278021,-1.73223 0.4726562,-3.429687 C 8.5755822,94.50882 16.106276,87.336625 27.677734,79.742188 35.843162,74.33341 46.036567,68.559427 57.710938,62.744141 l 0.78125,5.679687 11.849609,-18.101562 -0.712891,0.40625 c 0.11967,-0.15504 0.246235,-0.322337 0.355469,-0.464844 C 51.815022,58.507754 36.188234,66.912355 24.357422,74.751953 12.413265,82.729911 4.3097057,89.817555 1.1640625,96.580078 c -1.16127507,2.54831 -1.59729073,5.344332 -0.63867188,7.949222 1.00686608,2.73261 3.29918978,4.61562 5.99023438,5.8164 6.535911,2.83743 16.617513,3.0678 29.859375,1.66797 12.076521,-1.32232 38.845885,-7.23432 57.119141,-12.0039 v -6.128911 c -0.0042,-0.02308 -0.0056,-0.04528 -0.0098,-0.06836 -0.0019,4.97e-4 -0.004,0.0015 -0.0059,0.002 0.207612,-18.56444 0.414232,-36.425717 0.621093,-54.958984 H 158.0293 c 4.70057,0 4.70057,-7.275391 0,-7.275391 z m 15.990236,13.242188 c -0.7917,0 -1.4336,0.639655 -1.4336,1.429687 0,0.790033 0.6419,1.431641 1.4336,1.431641 h 27.23633 c 0.79174,0 1.43359,-0.641608 1.43359,-1.431641 0,-0.790032 -0.64185,-1.429687 -1.43359,-1.429687 z m 14.55664,76.894534 c -2.68463,0 -4.85742,2.17146 -4.85742,4.84961 0,2.68031 2.17279,4.85156 4.85742,4.85156 2.68585,0 4.85937,-2.17125 4.85937,-4.85156 0,-2.67815 -2.17352,-4.84961 -4.85937,-4.84961 z m -30.755861,1.76367 c -1.822443,-7.9e-4 -3.63159,1.17247 -3.607421,3.51953 0.05877,5.45489 0.115183,10.90652 0.171874,16.36133 C 86.872569,145.3438 88.492752,147 90.496094,147 H 158.0293 c 4.70053,0 4.70053,-7.27344 0,-7.27344 H 94.103516 c -0.04508,-4.24243 -0.08868,-8.48351 -0.132813,-12.72656 -0.02518,-2.3439 -1.86115,-3.51874 -3.683594,-3.51953 z" /></g><g transform="translate(1937.4966,555.4248)" id="g856" /><g transform="translate(1829.0508,740.8457)" id="g860"><path id="path862" class="second" style="fill:#100f0d;fill-opacity:1;fill-rule:nonzero;stroke:none;stroke-width:0.04512905" transform="matrix(22.136011,0,0,-22.181367,-1810.2865,2631.6026)"  d="m 81.779297,0 c -4.700621,0 -4.700621,7.2734375 0,7.2734375 h 63.925783 c 0.0402,3.7991125 0.0803,7.5973405 0.12109,11.3964845 -0.002,6.53e-4 -0.005,0.0013 -0.008,0.002 v 6.138672 c 17.95617,-4.819856 47.15157,-11.293429 59.45898,-12.636719 12.72334,-1.445943 22.38591,-0.85322 26.74414,1.181641 1.83005,0.831959 2.5356,1.674749 2.8086,2.408203 0.2593,0.704104 0.27811,1.730273 -0.47266,3.427734 -1.93196,4.524338 -9.46461,11.698532 -21.03711,19.292969 -8.02999,5.320727 -18.02395,10.990085 -29.45898,16.708984 l -0.81445,-5.925781 -11.85157,18.101563 0.48438,-0.277344 c -0.23826,0.314318 -0.46133,0.606877 -0.66602,0.873047 18.17247,-8.244082 33.80121,-16.650545 45.62891,-24.490235 11.94416,-7.977912 20.05075,-15.063649 23.19531,-21.826171 1.16132,-2.548221 1.5965,-5.346494 0.63477,-7.949219 -1.00588,-2.732654 -3.29429,-4.617577 -5.98633,-5.8183596 C 227.95037,5.0413588 217.86795,4.8109031 204.625,6.2128906 193.64428,7.4168136 170.83008,12.334894 153.09375,16.792969 153.04732,12.407855 153.00041,8.0237741 152.95312,3.6386719 152.93213,1.6562421 151.31276,0 149.31055,0 Z m 68.535153,66.978516 c -1.82256,0.0013 -3.66939,1.175747 -3.71875,3.517578 -0.28442,13.625107 -0.56827,27.247875 -0.85351,40.871096 H 81.779297 c -4.700621,0 -4.700621,7.27343 0,7.27343 h 67.531253 c 2.01798,0 3.6017,-1.65624 3.64257,-3.63867 0.31081,-14.83475 0.62284,-29.669034 0.9336,-44.505856 0.0488,-2.34706 -1.7497,-3.518886 -3.57227,-3.517578 z" /></g><g transform="translate(3408.4121,2928.7656)" id="g864" /><g transform="translate(2805.7559,565.0469)" id="g868" /><g transform="translate(5341.8594,3068.5874)" id="g872" /><g transform="translate(2088.3574,1290.0449)" id="g876" /><g transform="translate(3010.5859,2346.5166)" id="g880" /></g></g></g></g></svg>
"logo-10"|<?xml version="1.0" encoding="UTF-8" standalone="no"?><svg xmlns:dc="http://purl.org/dc/elements/1.1/" xmlns:cc="http://creativecommons.org/ns#" xmlns:rdf="http://www.w3.org/1999/02/22-rdf-syntax-ns#" xmlns:svg="http://www.w3.org/2000/svg" xmlns="http://www.w3.org/2000/svg" xmlns:sodipodi="http://sodipodi.sourceforge.net/DTD/sodipodi-0.dtd" xmlns:inkscape="http://www.inkscape.org/namespaces/inkscape" width="29.633348mm" height="33.602081mm" color-count="3" viewBox="0 0 29.633348 33.602081" version="1.1" id="svg8" inkscape:version="0.92.2 (unknown)" sodipodi:docname="logo-10.svg"><defs id="defs2"><clipPath id="clipPath869" clipPathUnits="userSpaceOnUse"><path inkscape:connector-curvature="0" id="path867" d="M 0,3492 H 2944 V 0 H 0 Z" /></clipPath></defs><sodipodi:namedview id="base" pagecolor="#ffffff" bordercolor="#666666" borderopacity="1.0" inkscape:pageopacity="0.0" inkscape:pageshadow="2" inkscape:zoom="3.959798" inkscape:cx="87.892709" inkscape:cy="81.715731" inkscape:document-units="mm" inkscape:current-layer="layer1" showgrid="false" fit-margin-top="0" fit-margin-left="0" fit-margin-right="0" fit-margin-bottom="0" inkscape:window-width="1855" inkscape:window-height="1056" inkscape:window-x="65" inkscape:window-y="24" inkscape:window-maximized="1" /><metadata id="metadata5"><rdf:RDF><cc:Work rdf:about=""><dc:format>image/svg+xml</dc:format><dc:type rdf:resource="http://purl.org/dc/dcmitype/StillImage" /><dc:title></dc:title></cc:Work></rdf:RDF></metadata><g inkscape:label="Layer 1" inkscape:groupmode="layer" id="layer1" transform="translate(-1.72714e-7,-263.39793)"><g transform="matrix(0.01030286,0,0,-0.01034038,-0.38687119,297.63822)" inkscape:label="logo10-color1" id="g861"><g id="g863"><g clip-path="url(#clipPath869)" id="g865"><g transform="translate(653.5703,1683.0664)" id="g871"><path id="path873" class="second" style="fill:#404142;fill-opacity:1;fill-rule:nonzero;stroke:none;stroke-width:0.03901078" transform="matrix(25.680572,0,0,-25.58739,-616.0204,1628.2519)"  d="m 80.794922,13.716797 c -0.592116,0.0128 -1.185879,0.176796 -1.738281,0.496094 L 71.974609,18.318359 30.792969,42.181641 0.46289062,59.755859 V 81.333984 L 21.740234,69.003906 c 1.893105,-1.095266 2.793674,-3.245516 2.248047,-5.36914 -0.131227,-0.512128 -0.257174,-1.025801 -0.376953,-1.541016 -0.106189,-0.458781 -0.115083,-0.91451 -0.05469,-1.353516 0.0375,-1.545722 0.585202,-3.461652 2.449218,-5.341796 6.86227,-6.918644 25.526083,-22.642505 56.513672,-41.269532 -0.543582,-0.286879 -1.132493,-0.424913 -1.724609,-0.412109 z m 14.708984,18.267578 c -0.614248,-0.0033 -1.236521,0.150228 -1.80664,0.480469 L 71.974609,45.052734 30.792969,68.914062 0.46289062,86.490234 V 108.07031 L 29.740234,91.109375 c 0.397811,-0.2341 0.750755,-0.501372 1.052735,-0.808594 0.571677,-0.579035 0.96577,-1.296264 1.185547,-2.138672 0.226903,-0.860111 0.22116,-1.695543 -0.0059,-2.496093 -0.07916,-0.178682 -0.191698,-0.461461 -0.296875,-0.826172 -0.211444,-0.505835 -0.294459,-1.032519 -0.271484,-1.548828 -0.112459,-1.639753 0.292676,-3.848546 2.433594,-6.007813 7.352795,-7.41287 28.662379,-25.334301 63.425781,-44.833984 -0.539396,-0.301496 -1.145517,-0.461576 -1.759766,-0.464844 z" /></g><g transform="translate(600.0869,2301.2012)" id="g875"><path id="path877" class="first" style="fill:#54ad36;fill-opacity:1;fill-rule:nonzero;stroke:none;stroke-width:0.03901078" transform="matrix(25.680572,0,0,-25.58739,-562.537,1010.1171)"  d="M 58.253906,0.00585938 C 57.565905,-0.03381166 56.906393,0.12968375 56.275391,0.49414062 L 30.792969,15.259766 0.46289062,32.833984 V 54.419922 L 19.513672,43.380859 c 1.443231,-0.836076 2.29896,-2.232105 2.390625,-3.904297 0.08329,-1.485106 0.219613,-2.967671 0.394531,-4.443359 0.0042,-0.04182 0.0075,-0.08123 0.01172,-0.123047 0.01246,-0.104504 0.02161,-0.208893 0.03516,-0.314453 0.0073,-0.05854 0.02187,-0.115323 0.03125,-0.173828 0.273865,-1.890619 0.93635,-4.467239 2.556641,-6.1875 C 29.82153,23.044318 41.315753,12.728787 59.291016,0.203125 59.178596,0.17490798 59.066674,0.14153736 58.953125,0.11328125 58.717529,0.05502013 58.48324,0.01908305 58.253906,0.00585938 Z" /></g><g transform="translate(2824.0293,1357.2734)" id="g879"><path id="path881" class="third" style="fill:#4396d8;fill-opacity:1;fill-rule:nonzero;stroke:none;stroke-width:0.03901078" transform="matrix(25.680572,0,0,-25.58739,-2786.4794,1954.0449)"  d="m 103.38281,52.851562 c -0.53967,0.03527 -1.07161,0.198138 -1.57617,0.490235 L 71.511719,70.898438 30.330078,94.759766 0,112.33594 v 9.66015 c 0,1.53947 0.70036512,2.91592 1.796875,3.82618 0.00728,0.006 0.014164,0.0133 0.021484,0.0195 0.8528237,0.69921 1.9398689,1.11914 3.1269531,1.11914 h 7.0585935 l 18.326172,-10.61914 12.009766,-6.95899 c 1.354759,-0.78484 2.182016,-2.05079 2.363281,-3.61328 0.10615,-0.9092 -0.02497,-1.77063 -0.376953,-2.54297 -0.199957,-0.439 -0.303386,-0.89802 -0.324219,-1.35156 -0.40408,-1.61677 -0.542672,-4.498232 2.232422,-7.294922 7.352796,-7.413026 25.153608,-21.602691 59.712895,-40.880859 -0.27593,-0.226792 -0.58752,-0.418131 -0.93946,-0.564453 -0.53784,-0.225229 -1.08532,-0.318475 -1.625,-0.283204 z m 6.8711,23.019532 c -0.59616,0.0094 -1.19197,0.17314 -1.74805,0.496094 L 76.476562,94.925781 35.294922,118.78906 21.125,127 h 32.308594 c 0.210353,0 0.363772,-0.0368 0.482422,-0.10156 2.426309,-0.3177 4.300781,-2.3972 4.300781,-4.91797 v -3.16602 c -0.0052,-0.0868 -0.0062,-0.20418 0,-0.35156 v -0.44922 l 0.04297,-0.0273 c 0.144739,-1.01898 0.683808,-2.73854 2.501953,-4.83399 C 67.038838,105.9171 82.768134,93.233339 112,76.304688 c -0.55398,-0.296808 -1.14993,-0.442993 -1.74609,-0.433594 z" /></g><g transform="translate(828.3271,1000.7793)" id="g883" /><g transform="translate(1124.8379,512.5059)" id="g887" /></g></g></g></g></svg>