name             ,title                 ,description
"offer_icon1.png","Great Value"         ,"We offer competitive prices on many popular products."
"offer_icon2.png","Worldwide Delivery"  ,"Need it shipped. Fast, easy checkout through our eBay or Amazon store."
"offer_icon3.png","Safe Payment"        ,"Pay with the world's most popular and secure payment methods."
"offer_icon4.png","Shop with Confidence","Our Buyer Protection covers your purchase from click to delivery."
"offer_icon5.png","Help Center"         ,"Round-the-clock assistance for a smooth shopping experience."