status,site_type,title                    ,description                                                    ,reference
1     ,1        ,"New"                    ,"Phone and accessories are unused and in the factory wrappers.",pt0
1     ,1        ,"Mint"                   ,"No scratches or flaws. Item looks like new."                  ,pt1
1     ,1        ,"Good"                   ,"Has moderate scratches that are typical from average use."    ,pt2
1     ,1        ,"Broken"                 ,"Bad ESN, cracked touch screen or button malfunctions."        ,pt3
1     ,2        ,"New"                    ,"Phone and accessories are unused and in the factory wrappers.",pt4
1     ,2        ,"Mint"                   ,"No scratches or flaws. Item looks like new."                  ,pt5
1     ,2        ,"Good"                   ,"Has moderate scratches that are typical from average use."    ,pt6
1     ,2        ,"Broken"                 ,"Bad ESN, cracked touch screen or button malfunctions."        ,pt7
1     ,3        ,"Glass Replacement"      ,"Glass Replacement Glass Replacement"                          ,pt8
1     ,3        ,"Battery Replacement"    ,"Battery Replacement Battery Replacement"                      ,pt9
1     ,3        ,"Diagnostic Service"     ,"Diagnostic Service Diagnostic Service"                        ,pt10
1     ,3        ,"LCD Replacement"        ,"LCD Replacement LCD Replacement"                              ,pt11
1     ,3        ,"Glass & LCD Replacement","Glass & LCD Replacement Glass & LCD Replacement"              ,pt12
1     ,3        ,"Charge Port Repair"     ,"Charge Port Repair Charge Port Repair"                        ,pt13
1     ,3        ,"Water Damage Diagnostic","Water Damage Diagnostic"                                      ,pt14
1     ,3        ,"Unlock Service"         ,"Unlock your device to be used with another cellular network." ,pt15