title,type
"blue",0
"green",0
"orange",0
"red",0
"blue",1
"light blue",1
"medium blue",1
"green",1
"light green",1
"medium green",1
"orange",1
"light orange",1
"medium orange",1
"red",1
"light red",1
"medium red",1
"blue",2
"light blue",2
"medium blue",2
"green",2
"light green",2
"medium green",2
"orange",2
"light orange",2
"medium orange",2
"red",2
"light red",2
"medium red",2
"blue",3
"light blue",3
"medium blue",3
"green",3
"light green",3
"medium green",3
"orange",3
"light orange",3
"medium orange",3
"red",3
"light red",3
"medium red",3